; ModuleID = '<stdin>'
source_filename = "bicg.cu"
target datalayout = "e-i64:64-v16:16-v32:32-n16:32:64"
target triple = "nvptx64-nvidia-cuda"

; Function Attrs: nounwind
define void @_Z12bicg_kernel1PfS_S_(float* nocapture readonly %A, float* nocapture readonly %r, float* nocapture %s) local_unnamed_addr #0 !dbg !574 {
entry:
  tail call void @llvm.dbg.value(metadata float* %A, i64 0, metadata !580, metadata !587), !dbg !588
  tail call void @llvm.dbg.value(metadata float* %r, i64 0, metadata !581, metadata !587), !dbg !589
  tail call void @llvm.dbg.value(metadata float* %s, i64 0, metadata !582, metadata !587), !dbg !590
  %0 = tail call i32 @llvm.nvvm.read.ptx.sreg.ctaid.x() #2, !dbg !591, !range !628
  %1 = tail call i32 @llvm.nvvm.read.ptx.sreg.ntid.x() #2, !dbg !629, !range !674
  %mul = mul nuw nsw i32 %1, %0, !dbg !675
  %2 = tail call i32 @llvm.nvvm.read.ptx.sreg.tid.x() #2, !dbg !676, !range !705
  %add = add nuw nsw i32 %mul, %2, !dbg !706
  tail call void @llvm.dbg.value(metadata i32 %add, i64 0, metadata !583, metadata !587), !dbg !707
  %cmp = icmp ult i32 %add, 4096, !dbg !708
  br i1 %cmp, label %if.then, label %if.end, !dbg !709

if.then:                                          ; preds = %entry
  %idxprom23 = zext i32 %add to i64, !dbg !710
  %arrayidx = getelementptr inbounds float, float* %s, i64 %idxprom23, !dbg !710
  store float 0.000000e+00, float* %arrayidx, align 4, !dbg !711, !tbaa !712
  tail call void @llvm.dbg.value(metadata i32 0, i64 0, metadata !584, metadata !587), !dbg !716
  tail call void @llvm.dbg.value(metadata i32 0, i64 0, metadata !584, metadata !587), !dbg !716
  br label %for.body, !dbg !717

for.body:                                         ; preds = %for.body, %if.then
  %3 = phi float [ 0.000000e+00, %if.then ], [ %add13.1, %for.body ], !dbg !720
  %i.024 = phi i32 [ 0, %if.then ], [ %inc.1, %for.body ]
  %mul4 = shl i32 %i.024, 12, !dbg !723
  %add5 = add nuw nsw i32 %mul4, %add, !dbg !724
  %idxprom6 = sext i32 %add5 to i64, !dbg !725
  %arrayidx7 = getelementptr inbounds float, float* %A, i64 %idxprom6, !dbg !725
  %4 = load float, float* %arrayidx7, align 4, !dbg !725, !tbaa !712
  %idxprom8 = sext i32 %i.024 to i64, !dbg !726
  %arrayidx9 = getelementptr inbounds float, float* %r, i64 %idxprom8, !dbg !726
  %5 = load float, float* %arrayidx9, align 4, !dbg !726, !tbaa !712
  %mul10 = fmul float %4, %5, !dbg !727
  %add13 = fadd float %3, %mul10, !dbg !720
  store float %add13, float* %arrayidx, align 4, !dbg !720, !tbaa !712
  %inc = or i32 %i.024, 1, !dbg !728
  tail call void @llvm.dbg.value(metadata i32 %inc, i64 0, metadata !584, metadata !587), !dbg !716
  tail call void @llvm.dbg.value(metadata i32 %inc, i64 0, metadata !584, metadata !587), !dbg !716
  %mul4.1 = shl i32 %inc, 12, !dbg !723
  %add5.1 = add nuw nsw i32 %mul4.1, %add, !dbg !724
  %idxprom6.1 = sext i32 %add5.1 to i64, !dbg !725
  %arrayidx7.1 = getelementptr inbounds float, float* %A, i64 %idxprom6.1, !dbg !725
  %6 = load float, float* %arrayidx7.1, align 4, !dbg !725, !tbaa !712
  %idxprom8.1 = sext i32 %inc to i64, !dbg !726
  %arrayidx9.1 = getelementptr inbounds float, float* %r, i64 %idxprom8.1, !dbg !726
  %7 = load float, float* %arrayidx9.1, align 4, !dbg !726, !tbaa !712
  %mul10.1 = fmul float %6, %7, !dbg !727
  %add13.1 = fadd float %add13, %mul10.1, !dbg !720
  store float %add13.1, float* %arrayidx, align 4, !dbg !720, !tbaa !712
  %inc.1 = add nsw i32 %i.024, 2, !dbg !728
  tail call void @llvm.dbg.value(metadata i32 %inc, i64 0, metadata !584, metadata !587), !dbg !716
  tail call void @llvm.dbg.value(metadata i32 %inc, i64 0, metadata !584, metadata !587), !dbg !716
  %exitcond.1 = icmp eq i32 %inc.1, 4096, !dbg !730
  br i1 %exitcond.1, label %if.end.loopexit, label %for.body, !dbg !717, !llvm.loop !732

if.end.loopexit:                                  ; preds = %for.body
  br label %if.end, !dbg !735

if.end:                                           ; preds = %if.end.loopexit, %entry
  ret void, !dbg !735
}

; Function Attrs: nounwind
define void @_Z12bicg_kernel2PfS_S_(float* nocapture readonly %A, float* nocapture readonly %p, float* nocapture %q) local_unnamed_addr #0 !dbg !736 {
entry:
  tail call void @llvm.dbg.value(metadata float* %A, i64 0, metadata !738, metadata !587), !dbg !745
  tail call void @llvm.dbg.value(metadata float* %p, i64 0, metadata !739, metadata !587), !dbg !746
  tail call void @llvm.dbg.value(metadata float* %q, i64 0, metadata !740, metadata !587), !dbg !747
  %0 = tail call i32 @llvm.nvvm.read.ptx.sreg.ctaid.x() #2, !dbg !748, !range !628
  %1 = tail call i32 @llvm.nvvm.read.ptx.sreg.ntid.x() #2, !dbg !750, !range !674
  %mul = mul nuw nsw i32 %1, %0, !dbg !753
  %2 = tail call i32 @llvm.nvvm.read.ptx.sreg.tid.x() #2, !dbg !754, !range !705
  %add = add nuw nsw i32 %mul, %2, !dbg !757
  tail call void @llvm.dbg.value(metadata i32 %add, i64 0, metadata !741, metadata !587), !dbg !758
  %cmp = icmp ult i32 %add, 4096, !dbg !759
  br i1 %cmp, label %if.then, label %if.end, !dbg !760

if.then:                                          ; preds = %entry
  %idxprom23 = zext i32 %add to i64, !dbg !761
  %arrayidx = getelementptr inbounds float, float* %q, i64 %idxprom23, !dbg !761
  store float 0.000000e+00, float* %arrayidx, align 4, !dbg !762, !tbaa !712
  tail call void @llvm.dbg.value(metadata i32 0, i64 0, metadata !742, metadata !587), !dbg !763
  tail call void @llvm.dbg.value(metadata i32 0, i64 0, metadata !742, metadata !587), !dbg !763
  %mul4 = shl i32 %add, 12
  br label %for.body, !dbg !764

for.body:                                         ; preds = %for.body, %if.then
  %3 = phi float [ 0.000000e+00, %if.then ], [ %add13.1, %for.body ], !dbg !767
  %j.024 = phi i32 [ 0, %if.then ], [ %inc.1, %for.body ]
  %add5 = add nuw nsw i32 %j.024, %mul4, !dbg !770
  %idxprom6 = sext i32 %add5 to i64, !dbg !771
  %arrayidx7 = getelementptr inbounds float, float* %A, i64 %idxprom6, !dbg !771
  %4 = load float, float* %arrayidx7, align 4, !dbg !771, !tbaa !712
  %idxprom8 = sext i32 %j.024 to i64, !dbg !772
  %arrayidx9 = getelementptr inbounds float, float* %p, i64 %idxprom8, !dbg !772
  %5 = load float, float* %arrayidx9, align 4, !dbg !772, !tbaa !712
  %mul10 = fmul float %4, %5, !dbg !773
  %add13 = fadd float %3, %mul10, !dbg !767
  store float %add13, float* %arrayidx, align 4, !dbg !767, !tbaa !712
  %inc = or i32 %j.024, 1, !dbg !774
  tail call void @llvm.dbg.value(metadata i32 %inc, i64 0, metadata !742, metadata !587), !dbg !763
  tail call void @llvm.dbg.value(metadata i32 %inc, i64 0, metadata !742, metadata !587), !dbg !763
  %add5.1 = add nuw nsw i32 %inc, %mul4, !dbg !770
  %idxprom6.1 = sext i32 %add5.1 to i64, !dbg !771
  %arrayidx7.1 = getelementptr inbounds float, float* %A, i64 %idxprom6.1, !dbg !771
  %6 = load float, float* %arrayidx7.1, align 4, !dbg !771, !tbaa !712
  %idxprom8.1 = sext i32 %inc to i64, !dbg !772
  %arrayidx9.1 = getelementptr inbounds float, float* %p, i64 %idxprom8.1, !dbg !772
  %7 = load float, float* %arrayidx9.1, align 4, !dbg !772, !tbaa !712
  %mul10.1 = fmul float %6, %7, !dbg !773
  %add13.1 = fadd float %add13, %mul10.1, !dbg !767
  store float %add13.1, float* %arrayidx, align 4, !dbg !767, !tbaa !712
  %inc.1 = add nsw i32 %j.024, 2, !dbg !774
  tail call void @llvm.dbg.value(metadata i32 %inc, i64 0, metadata !742, metadata !587), !dbg !763
  tail call void @llvm.dbg.value(metadata i32 %inc, i64 0, metadata !742, metadata !587), !dbg !763
  %exitcond.1 = icmp eq i32 %inc.1, 4096, !dbg !776
  br i1 %exitcond.1, label %if.end.loopexit, label %for.body, !dbg !764, !llvm.loop !778

if.end.loopexit:                                  ; preds = %for.body
  br label %if.end, !dbg !781

if.end:                                           ; preds = %if.end.loopexit, %entry
  ret void, !dbg !781
}

; Function Attrs: nounwind readnone
declare i32 @llvm.nvvm.read.ptx.sreg.ctaid.x() #1

; Function Attrs: nounwind readnone
declare i32 @llvm.nvvm.read.ptx.sreg.ntid.x() #1

; Function Attrs: nounwind readnone
declare i32 @llvm.nvvm.read.ptx.sreg.tid.x() #1

; Function Attrs: nounwind readnone
declare void @llvm.dbg.value(metadata, i64, metadata, metadata) #1

attributes #0 = { nounwind "correctly-rounded-divide-sqrt-fp-math"="false" "disable-tail-calls"="false" "less-precise-fpmad"="false" "no-frame-pointer-elim"="true" "no-frame-pointer-elim-non-leaf" "no-infs-fp-math"="false" "no-jump-tables"="false" "no-nans-fp-math"="false" "no-signed-zeros-fp-math"="false" "no-trapping-math"="false" "stack-protector-buffer-size"="8" "target-cpu"="sm_20" "target-features"="+ptx42,-satom" "unsafe-fp-math"="false" "use-soft-float"="false" }
attributes #1 = { nounwind readnone }
attributes #2 = { nounwind }

!llvm.dbg.cu = !{!0}
!nvvm.annotations = !{!563, !564, !565, !566, !565, !567, !567, !567, !567, !568, !568, !567}
!llvm.module.flags = !{!569, !570, !571}
!llvm.ident = !{!572}
!nvvm.internalize.after.link = !{}
!nvvmir.version = !{!573}

!0 = distinct !DICompileUnit(language: DW_LANG_C_plus_plus, file: !1, producer: "clang version 5.0.0 (trunk 294196)", isOptimized: true, runtimeVersion: 0, emissionKind: FullDebug, enums: !2, imports: !3)
!1 = !DIFile(filename: "bicg.cu", directory: "/home/dshen/benchmarks/polybench-gpu-1.0/cuda/BICG")
!2 = !{}
!3 = !{!4, !11, !16, !18, !20, !22, !24, !28, !30, !32, !34, !36, !38, !40, !42, !44, !46, !48, !50, !52, !54, !56, !60, !62, !64, !66, !71, !76, !78, !80, !85, !89, !91, !93, !95, !97, !99, !101, !103, !105, !110, !114, !116, !118, !122, !124, !126, !128, !130, !132, !136, !138, !140, !145, !153, !157, !159, !161, !165, !167, !169, !173, !175, !177, !181, !183, !185, !187, !189, !191, !193, !195, !197, !199, !204, !206, !208, !212, !214, !216, !218, !220, !222, !224, !226, !230, !234, !236, !238, !243, !245, !247, !249, !251, !253, !255, !259, !265, !269, !273, !278, !281, !285, !289, !304, !308, !312, !316, !320, !325, !327, !331, !335, !339, !347, !351, !355, !359, !363, !368, !374, !378, !382, !384, !392, !396, !404, !406, !408, !412, !416, !420, !425, !429, !434, !435, !436, !437, !440, !441, !442, !443, !444, !445, !446, !449, !451, !453, !455, !457, !459, !461, !463, !466, !468, !470, !472, !474, !476, !478, !480, !482, !484, !486, !488, !490, !492, !494, !496, !498, !500, !502, !504, !506, !508, !510, !512, !514, !516, !518, !520, !522, !524, !526, !528, !530, !534, !535, !537, !539, !541, !543, !545, !547, !549, !551, !553, !555, !557, !559, !561}
!4 = !DIImportedEntity(tag: DW_TAG_imported_declaration, scope: !5, entity: !7, line: 201)
!5 = !DINamespace(name: "std", scope: null, file: !6, line: 195)
!6 = !DIFile(filename: "/home/dshen/llvm/build/bin/../lib/clang/5.0.0/include/__clang_cuda_math_forward_declares.h", directory: "/home/dshen/benchmarks/polybench-gpu-1.0/cuda/BICG")
!7 = !DISubprogram(name: "abs", linkageName: "_ZL3absx", scope: !6, file: !6, line: 44, type: !8, isLocal: true, isDefinition: false, flags: DIFlagPrototyped, isOptimized: true)
!8 = !DISubroutineType(types: !9)
!9 = !{!10, !10}
!10 = !DIBasicType(name: "long long int", size: 64, encoding: DW_ATE_signed)
!11 = !DIImportedEntity(tag: DW_TAG_imported_declaration, scope: !5, entity: !12, line: 202)
!12 = !DISubprogram(name: "acos", linkageName: "_ZL4acosf", scope: !6, file: !6, line: 46, type: !13, isLocal: true, isDefinition: false, flags: DIFlagPrototyped, isOptimized: true)
!13 = !DISubroutineType(types: !14)
!14 = !{!15, !15}
!15 = !DIBasicType(name: "float", size: 32, encoding: DW_ATE_float)
!16 = !DIImportedEntity(tag: DW_TAG_imported_declaration, scope: !5, entity: !17, line: 203)
!17 = !DISubprogram(name: "acosh", linkageName: "_ZL5acoshf", scope: !6, file: !6, line: 48, type: !13, isLocal: true, isDefinition: false, flags: DIFlagPrototyped, isOptimized: true)
!18 = !DIImportedEntity(tag: DW_TAG_imported_declaration, scope: !5, entity: !19, line: 204)
!19 = !DISubprogram(name: "asin", linkageName: "_ZL4asinf", scope: !6, file: !6, line: 50, type: !13, isLocal: true, isDefinition: false, flags: DIFlagPrototyped, isOptimized: true)
!20 = !DIImportedEntity(tag: DW_TAG_imported_declaration, scope: !5, entity: !21, line: 205)
!21 = !DISubprogram(name: "asinh", linkageName: "_ZL5asinhf", scope: !6, file: !6, line: 52, type: !13, isLocal: true, isDefinition: false, flags: DIFlagPrototyped, isOptimized: true)
!22 = !DIImportedEntity(tag: DW_TAG_imported_declaration, scope: !5, entity: !23, line: 206)
!23 = !DISubprogram(name: "atan", linkageName: "_ZL4atanf", scope: !6, file: !6, line: 56, type: !13, isLocal: true, isDefinition: false, flags: DIFlagPrototyped, isOptimized: true)
!24 = !DIImportedEntity(tag: DW_TAG_imported_declaration, scope: !5, entity: !25, line: 207)
!25 = !DISubprogram(name: "atan2", linkageName: "_ZL5atan2ff", scope: !6, file: !6, line: 54, type: !26, isLocal: true, isDefinition: false, flags: DIFlagPrototyped, isOptimized: true)
!26 = !DISubroutineType(types: !27)
!27 = !{!15, !15, !15}
!28 = !DIImportedEntity(tag: DW_TAG_imported_declaration, scope: !5, entity: !29, line: 208)
!29 = !DISubprogram(name: "atanh", linkageName: "_ZL5atanhf", scope: !6, file: !6, line: 58, type: !13, isLocal: true, isDefinition: false, flags: DIFlagPrototyped, isOptimized: true)
!30 = !DIImportedEntity(tag: DW_TAG_imported_declaration, scope: !5, entity: !31, line: 209)
!31 = !DISubprogram(name: "cbrt", linkageName: "_ZL4cbrtf", scope: !6, file: !6, line: 60, type: !13, isLocal: true, isDefinition: false, flags: DIFlagPrototyped, isOptimized: true)
!32 = !DIImportedEntity(tag: DW_TAG_imported_declaration, scope: !5, entity: !33, line: 210)
!33 = !DISubprogram(name: "ceil", linkageName: "_ZL4ceilf", scope: !6, file: !6, line: 62, type: !13, isLocal: true, isDefinition: false, flags: DIFlagPrototyped, isOptimized: true)
!34 = !DIImportedEntity(tag: DW_TAG_imported_declaration, scope: !5, entity: !35, line: 211)
!35 = !DISubprogram(name: "copysign", linkageName: "_ZL8copysignff", scope: !6, file: !6, line: 64, type: !26, isLocal: true, isDefinition: false, flags: DIFlagPrototyped, isOptimized: true)
!36 = !DIImportedEntity(tag: DW_TAG_imported_declaration, scope: !5, entity: !37, line: 212)
!37 = !DISubprogram(name: "cos", linkageName: "_ZL3cosf", scope: !6, file: !6, line: 66, type: !13, isLocal: true, isDefinition: false, flags: DIFlagPrototyped, isOptimized: true)
!38 = !DIImportedEntity(tag: DW_TAG_imported_declaration, scope: !5, entity: !39, line: 213)
!39 = !DISubprogram(name: "cosh", linkageName: "_ZL4coshf", scope: !6, file: !6, line: 68, type: !13, isLocal: true, isDefinition: false, flags: DIFlagPrototyped, isOptimized: true)
!40 = !DIImportedEntity(tag: DW_TAG_imported_declaration, scope: !5, entity: !41, line: 214)
!41 = !DISubprogram(name: "erf", linkageName: "_ZL3erff", scope: !6, file: !6, line: 72, type: !13, isLocal: true, isDefinition: false, flags: DIFlagPrototyped, isOptimized: true)
!42 = !DIImportedEntity(tag: DW_TAG_imported_declaration, scope: !5, entity: !43, line: 215)
!43 = !DISubprogram(name: "erfc", linkageName: "_ZL4erfcf", scope: !6, file: !6, line: 70, type: !13, isLocal: true, isDefinition: false, flags: DIFlagPrototyped, isOptimized: true)
!44 = !DIImportedEntity(tag: DW_TAG_imported_declaration, scope: !5, entity: !45, line: 216)
!45 = !DISubprogram(name: "exp", linkageName: "_ZL3expf", scope: !6, file: !6, line: 76, type: !13, isLocal: true, isDefinition: false, flags: DIFlagPrototyped, isOptimized: true)
!46 = !DIImportedEntity(tag: DW_TAG_imported_declaration, scope: !5, entity: !47, line: 217)
!47 = !DISubprogram(name: "exp2", linkageName: "_ZL4exp2f", scope: !6, file: !6, line: 74, type: !13, isLocal: true, isDefinition: false, flags: DIFlagPrototyped, isOptimized: true)
!48 = !DIImportedEntity(tag: DW_TAG_imported_declaration, scope: !5, entity: !49, line: 218)
!49 = !DISubprogram(name: "expm1", linkageName: "_ZL5expm1f", scope: !6, file: !6, line: 78, type: !13, isLocal: true, isDefinition: false, flags: DIFlagPrototyped, isOptimized: true)
!50 = !DIImportedEntity(tag: DW_TAG_imported_declaration, scope: !5, entity: !51, line: 219)
!51 = !DISubprogram(name: "fabs", linkageName: "_ZL4fabsf", scope: !6, file: !6, line: 80, type: !13, isLocal: true, isDefinition: false, flags: DIFlagPrototyped, isOptimized: true)
!52 = !DIImportedEntity(tag: DW_TAG_imported_declaration, scope: !5, entity: !53, line: 220)
!53 = !DISubprogram(name: "fdim", linkageName: "_ZL4fdimff", scope: !6, file: !6, line: 82, type: !26, isLocal: true, isDefinition: false, flags: DIFlagPrototyped, isOptimized: true)
!54 = !DIImportedEntity(tag: DW_TAG_imported_declaration, scope: !5, entity: !55, line: 221)
!55 = !DISubprogram(name: "floor", linkageName: "_ZL5floorf", scope: !6, file: !6, line: 84, type: !13, isLocal: true, isDefinition: false, flags: DIFlagPrototyped, isOptimized: true)
!56 = !DIImportedEntity(tag: DW_TAG_imported_declaration, scope: !5, entity: !57, line: 222)
!57 = !DISubprogram(name: "fma", linkageName: "_ZL3fmafff", scope: !6, file: !6, line: 86, type: !58, isLocal: true, isDefinition: false, flags: DIFlagPrototyped, isOptimized: true)
!58 = !DISubroutineType(types: !59)
!59 = !{!15, !15, !15, !15}
!60 = !DIImportedEntity(tag: DW_TAG_imported_declaration, scope: !5, entity: !61, line: 223)
!61 = !DISubprogram(name: "fmax", linkageName: "_ZL4fmaxff", scope: !6, file: !6, line: 88, type: !26, isLocal: true, isDefinition: false, flags: DIFlagPrototyped, isOptimized: true)
!62 = !DIImportedEntity(tag: DW_TAG_imported_declaration, scope: !5, entity: !63, line: 224)
!63 = !DISubprogram(name: "fmin", linkageName: "_ZL4fminff", scope: !6, file: !6, line: 90, type: !26, isLocal: true, isDefinition: false, flags: DIFlagPrototyped, isOptimized: true)
!64 = !DIImportedEntity(tag: DW_TAG_imported_declaration, scope: !5, entity: !65, line: 225)
!65 = !DISubprogram(name: "fmod", linkageName: "_ZL4fmodff", scope: !6, file: !6, line: 92, type: !26, isLocal: true, isDefinition: false, flags: DIFlagPrototyped, isOptimized: true)
!66 = !DIImportedEntity(tag: DW_TAG_imported_declaration, scope: !5, entity: !67, line: 226)
!67 = !DISubprogram(name: "fpclassify", linkageName: "_ZL10fpclassifyf", scope: !6, file: !6, line: 94, type: !68, isLocal: true, isDefinition: false, flags: DIFlagPrototyped, isOptimized: true)
!68 = !DISubroutineType(types: !69)
!69 = !{!70, !15}
!70 = !DIBasicType(name: "int", size: 32, encoding: DW_ATE_signed)
!71 = !DIImportedEntity(tag: DW_TAG_imported_declaration, scope: !5, entity: !72, line: 227)
!72 = !DISubprogram(name: "frexp", linkageName: "_ZL5frexpfPi", scope: !6, file: !6, line: 96, type: !73, isLocal: true, isDefinition: false, flags: DIFlagPrototyped, isOptimized: true)
!73 = !DISubroutineType(types: !74)
!74 = !{!15, !15, !75}
!75 = !DIDerivedType(tag: DW_TAG_pointer_type, baseType: !70, size: 64)
!76 = !DIImportedEntity(tag: DW_TAG_imported_declaration, scope: !5, entity: !77, line: 228)
!77 = !DISubprogram(name: "hypot", linkageName: "_ZL5hypotff", scope: !6, file: !6, line: 98, type: !26, isLocal: true, isDefinition: false, flags: DIFlagPrototyped, isOptimized: true)
!78 = !DIImportedEntity(tag: DW_TAG_imported_declaration, scope: !5, entity: !79, line: 229)
!79 = !DISubprogram(name: "ilogb", linkageName: "_ZL5ilogbf", scope: !6, file: !6, line: 100, type: !68, isLocal: true, isDefinition: false, flags: DIFlagPrototyped, isOptimized: true)
!80 = !DIImportedEntity(tag: DW_TAG_imported_declaration, scope: !5, entity: !81, line: 230)
!81 = !DISubprogram(name: "isfinite", linkageName: "_ZL8isfinitef", scope: !6, file: !6, line: 102, type: !82, isLocal: true, isDefinition: false, flags: DIFlagPrototyped, isOptimized: true)
!82 = !DISubroutineType(types: !83)
!83 = !{!84, !15}
!84 = !DIBasicType(name: "bool", size: 8, encoding: DW_ATE_boolean)
!85 = !DIImportedEntity(tag: DW_TAG_imported_declaration, scope: !5, entity: !86, line: 231)
!86 = !DISubprogram(name: "isgreater", linkageName: "_ZL9isgreaterff", scope: !6, file: !6, line: 106, type: !87, isLocal: true, isDefinition: false, flags: DIFlagPrototyped, isOptimized: true)
!87 = !DISubroutineType(types: !88)
!88 = !{!84, !15, !15}
!89 = !DIImportedEntity(tag: DW_TAG_imported_declaration, scope: !5, entity: !90, line: 232)
!90 = !DISubprogram(name: "isgreaterequal", linkageName: "_ZL14isgreaterequalff", scope: !6, file: !6, line: 105, type: !87, isLocal: true, isDefinition: false, flags: DIFlagPrototyped, isOptimized: true)
!91 = !DIImportedEntity(tag: DW_TAG_imported_declaration, scope: !5, entity: !92, line: 233)
!92 = !DISubprogram(name: "isinf", linkageName: "_ZL5isinff", scope: !6, file: !6, line: 108, type: !82, isLocal: true, isDefinition: false, flags: DIFlagPrototyped, isOptimized: true)
!93 = !DIImportedEntity(tag: DW_TAG_imported_declaration, scope: !5, entity: !94, line: 234)
!94 = !DISubprogram(name: "isless", linkageName: "_ZL6islessff", scope: !6, file: !6, line: 112, type: !87, isLocal: true, isDefinition: false, flags: DIFlagPrototyped, isOptimized: true)
!95 = !DIImportedEntity(tag: DW_TAG_imported_declaration, scope: !5, entity: !96, line: 235)
!96 = !DISubprogram(name: "islessequal", linkageName: "_ZL11islessequalff", scope: !6, file: !6, line: 111, type: !87, isLocal: true, isDefinition: false, flags: DIFlagPrototyped, isOptimized: true)
!97 = !DIImportedEntity(tag: DW_TAG_imported_declaration, scope: !5, entity: !98, line: 236)
!98 = !DISubprogram(name: "islessgreater", linkageName: "_ZL13islessgreaterff", scope: !6, file: !6, line: 114, type: !87, isLocal: true, isDefinition: false, flags: DIFlagPrototyped, isOptimized: true)
!99 = !DIImportedEntity(tag: DW_TAG_imported_declaration, scope: !5, entity: !100, line: 237)
!100 = !DISubprogram(name: "isnan", linkageName: "_ZL5isnanf", scope: !6, file: !6, line: 116, type: !82, isLocal: true, isDefinition: false, flags: DIFlagPrototyped, isOptimized: true)
!101 = !DIImportedEntity(tag: DW_TAG_imported_declaration, scope: !5, entity: !102, line: 238)
!102 = !DISubprogram(name: "isnormal", linkageName: "_ZL8isnormalf", scope: !6, file: !6, line: 118, type: !82, isLocal: true, isDefinition: false, flags: DIFlagPrototyped, isOptimized: true)
!103 = !DIImportedEntity(tag: DW_TAG_imported_declaration, scope: !5, entity: !104, line: 239)
!104 = !DISubprogram(name: "isunordered", linkageName: "_ZL11isunorderedff", scope: !6, file: !6, line: 120, type: !87, isLocal: true, isDefinition: false, flags: DIFlagPrototyped, isOptimized: true)
!105 = !DIImportedEntity(tag: DW_TAG_imported_declaration, scope: !5, entity: !106, line: 240)
!106 = !DISubprogram(name: "labs", linkageName: "_ZL4labsl", scope: !6, file: !6, line: 121, type: !107, isLocal: true, isDefinition: false, flags: DIFlagPrototyped, isOptimized: true)
!107 = !DISubroutineType(types: !108)
!108 = !{!109, !109}
!109 = !DIBasicType(name: "long int", size: 64, encoding: DW_ATE_signed)
!110 = !DIImportedEntity(tag: DW_TAG_imported_declaration, scope: !5, entity: !111, line: 241)
!111 = !DISubprogram(name: "ldexp", linkageName: "_ZL5ldexpfi", scope: !6, file: !6, line: 123, type: !112, isLocal: true, isDefinition: false, flags: DIFlagPrototyped, isOptimized: true)
!112 = !DISubroutineType(types: !113)
!113 = !{!15, !15, !70}
!114 = !DIImportedEntity(tag: DW_TAG_imported_declaration, scope: !5, entity: !115, line: 242)
!115 = !DISubprogram(name: "lgamma", linkageName: "_ZL6lgammaf", scope: !6, file: !6, line: 125, type: !13, isLocal: true, isDefinition: false, flags: DIFlagPrototyped, isOptimized: true)
!116 = !DIImportedEntity(tag: DW_TAG_imported_declaration, scope: !5, entity: !117, line: 243)
!117 = !DISubprogram(name: "llabs", linkageName: "_ZL5llabsx", scope: !6, file: !6, line: 126, type: !8, isLocal: true, isDefinition: false, flags: DIFlagPrototyped, isOptimized: true)
!118 = !DIImportedEntity(tag: DW_TAG_imported_declaration, scope: !5, entity: !119, line: 244)
!119 = !DISubprogram(name: "llrint", linkageName: "_ZL6llrintf", scope: !6, file: !6, line: 128, type: !120, isLocal: true, isDefinition: false, flags: DIFlagPrototyped, isOptimized: true)
!120 = !DISubroutineType(types: !121)
!121 = !{!10, !15}
!122 = !DIImportedEntity(tag: DW_TAG_imported_declaration, scope: !5, entity: !123, line: 245)
!123 = !DISubprogram(name: "log", linkageName: "_ZL3logf", scope: !6, file: !6, line: 138, type: !13, isLocal: true, isDefinition: false, flags: DIFlagPrototyped, isOptimized: true)
!124 = !DIImportedEntity(tag: DW_TAG_imported_declaration, scope: !5, entity: !125, line: 246)
!125 = !DISubprogram(name: "log10", linkageName: "_ZL5log10f", scope: !6, file: !6, line: 130, type: !13, isLocal: true, isDefinition: false, flags: DIFlagPrototyped, isOptimized: true)
!126 = !DIImportedEntity(tag: DW_TAG_imported_declaration, scope: !5, entity: !127, line: 247)
!127 = !DISubprogram(name: "log1p", linkageName: "_ZL5log1pf", scope: !6, file: !6, line: 132, type: !13, isLocal: true, isDefinition: false, flags: DIFlagPrototyped, isOptimized: true)
!128 = !DIImportedEntity(tag: DW_TAG_imported_declaration, scope: !5, entity: !129, line: 248)
!129 = !DISubprogram(name: "log2", linkageName: "_ZL4log2f", scope: !6, file: !6, line: 134, type: !13, isLocal: true, isDefinition: false, flags: DIFlagPrototyped, isOptimized: true)
!130 = !DIImportedEntity(tag: DW_TAG_imported_declaration, scope: !5, entity: !131, line: 249)
!131 = !DISubprogram(name: "logb", linkageName: "_ZL4logbf", scope: !6, file: !6, line: 136, type: !13, isLocal: true, isDefinition: false, flags: DIFlagPrototyped, isOptimized: true)
!132 = !DIImportedEntity(tag: DW_TAG_imported_declaration, scope: !5, entity: !133, line: 250)
!133 = !DISubprogram(name: "lrint", linkageName: "_ZL5lrintf", scope: !6, file: !6, line: 140, type: !134, isLocal: true, isDefinition: false, flags: DIFlagPrototyped, isOptimized: true)
!134 = !DISubroutineType(types: !135)
!135 = !{!109, !15}
!136 = !DIImportedEntity(tag: DW_TAG_imported_declaration, scope: !5, entity: !137, line: 251)
!137 = !DISubprogram(name: "lround", linkageName: "_ZL6lroundf", scope: !6, file: !6, line: 142, type: !134, isLocal: true, isDefinition: false, flags: DIFlagPrototyped, isOptimized: true)
!138 = !DIImportedEntity(tag: DW_TAG_imported_declaration, scope: !5, entity: !139, line: 252)
!139 = !DISubprogram(name: "llround", linkageName: "_ZL7llroundf", scope: !6, file: !6, line: 143, type: !120, isLocal: true, isDefinition: false, flags: DIFlagPrototyped, isOptimized: true)
!140 = !DIImportedEntity(tag: DW_TAG_imported_declaration, scope: !5, entity: !141, line: 253)
!141 = !DISubprogram(name: "modf", linkageName: "_ZL4modffPf", scope: !6, file: !6, line: 145, type: !142, isLocal: true, isDefinition: false, flags: DIFlagPrototyped, isOptimized: true)
!142 = !DISubroutineType(types: !143)
!143 = !{!15, !15, !144}
!144 = !DIDerivedType(tag: DW_TAG_pointer_type, baseType: !15, size: 64)
!145 = !DIImportedEntity(tag: DW_TAG_imported_declaration, scope: !5, entity: !146, line: 254)
!146 = !DISubprogram(name: "nan", linkageName: "_ZL3nanPKc", scope: !6, file: !6, line: 146, type: !147, isLocal: true, isDefinition: false, flags: DIFlagPrototyped, isOptimized: true)
!147 = !DISubroutineType(types: !148)
!148 = !{!149, !150}
!149 = !DIBasicType(name: "double", size: 64, encoding: DW_ATE_float)
!150 = !DIDerivedType(tag: DW_TAG_pointer_type, baseType: !151, size: 64)
!151 = !DIDerivedType(tag: DW_TAG_const_type, baseType: !152)
!152 = !DIBasicType(name: "char", size: 8, encoding: DW_ATE_signed_char)
!153 = !DIImportedEntity(tag: DW_TAG_imported_declaration, scope: !5, entity: !154, line: 255)
!154 = !DISubprogram(name: "nanf", linkageName: "_ZL4nanfPKc", scope: !6, file: !6, line: 147, type: !155, isLocal: true, isDefinition: false, flags: DIFlagPrototyped, isOptimized: true)
!155 = !DISubroutineType(types: !156)
!156 = !{!15, !150}
!157 = !DIImportedEntity(tag: DW_TAG_imported_declaration, scope: !5, entity: !158, line: 256)
!158 = !DISubprogram(name: "nearbyint", linkageName: "_ZL9nearbyintf", scope: !6, file: !6, line: 149, type: !13, isLocal: true, isDefinition: false, flags: DIFlagPrototyped, isOptimized: true)
!159 = !DIImportedEntity(tag: DW_TAG_imported_declaration, scope: !5, entity: !160, line: 257)
!160 = !DISubprogram(name: "nextafter", linkageName: "_ZL9nextafterff", scope: !6, file: !6, line: 151, type: !26, isLocal: true, isDefinition: false, flags: DIFlagPrototyped, isOptimized: true)
!161 = !DIImportedEntity(tag: DW_TAG_imported_declaration, scope: !5, entity: !162, line: 258)
!162 = !DISubprogram(name: "nexttoward", linkageName: "_ZL10nexttowardfd", scope: !6, file: !6, line: 153, type: !163, isLocal: true, isDefinition: false, flags: DIFlagPrototyped, isOptimized: true)
!163 = !DISubroutineType(types: !164)
!164 = !{!15, !15, !149}
!165 = !DIImportedEntity(tag: DW_TAG_imported_declaration, scope: !5, entity: !166, line: 259)
!166 = !DISubprogram(name: "pow", linkageName: "_ZL3powfi", scope: !6, file: !6, line: 158, type: !112, isLocal: true, isDefinition: false, flags: DIFlagPrototyped, isOptimized: true)
!167 = !DIImportedEntity(tag: DW_TAG_imported_declaration, scope: !5, entity: !168, line: 260)
!168 = !DISubprogram(name: "remainder", linkageName: "_ZL9remainderff", scope: !6, file: !6, line: 160, type: !26, isLocal: true, isDefinition: false, flags: DIFlagPrototyped, isOptimized: true)
!169 = !DIImportedEntity(tag: DW_TAG_imported_declaration, scope: !5, entity: !170, line: 261)
!170 = !DISubprogram(name: "remquo", linkageName: "_ZL6remquoffPi", scope: !6, file: !6, line: 162, type: !171, isLocal: true, isDefinition: false, flags: DIFlagPrototyped, isOptimized: true)
!171 = !DISubroutineType(types: !172)
!172 = !{!15, !15, !15, !75}
!173 = !DIImportedEntity(tag: DW_TAG_imported_declaration, scope: !5, entity: !174, line: 262)
!174 = !DISubprogram(name: "rint", linkageName: "_ZL4rintf", scope: !6, file: !6, line: 164, type: !13, isLocal: true, isDefinition: false, flags: DIFlagPrototyped, isOptimized: true)
!175 = !DIImportedEntity(tag: DW_TAG_imported_declaration, scope: !5, entity: !176, line: 263)
!176 = !DISubprogram(name: "round", linkageName: "_ZL5roundf", scope: !6, file: !6, line: 166, type: !13, isLocal: true, isDefinition: false, flags: DIFlagPrototyped, isOptimized: true)
!177 = !DIImportedEntity(tag: DW_TAG_imported_declaration, scope: !5, entity: !178, line: 264)
!178 = !DISubprogram(name: "scalbln", linkageName: "_ZL7scalblnfl", scope: !6, file: !6, line: 168, type: !179, isLocal: true, isDefinition: false, flags: DIFlagPrototyped, isOptimized: true)
!179 = !DISubroutineType(types: !180)
!180 = !{!15, !15, !109}
!181 = !DIImportedEntity(tag: DW_TAG_imported_declaration, scope: !5, entity: !182, line: 265)
!182 = !DISubprogram(name: "scalbn", linkageName: "_ZL6scalbnfi", scope: !6, file: !6, line: 170, type: !112, isLocal: true, isDefinition: false, flags: DIFlagPrototyped, isOptimized: true)
!183 = !DIImportedEntity(tag: DW_TAG_imported_declaration, scope: !5, entity: !184, line: 266)
!184 = !DISubprogram(name: "signbit", linkageName: "_ZL7signbitf", scope: !6, file: !6, line: 172, type: !82, isLocal: true, isDefinition: false, flags: DIFlagPrototyped, isOptimized: true)
!185 = !DIImportedEntity(tag: DW_TAG_imported_declaration, scope: !5, entity: !186, line: 267)
!186 = !DISubprogram(name: "sin", linkageName: "_ZL3sinf", scope: !6, file: !6, line: 174, type: !13, isLocal: true, isDefinition: false, flags: DIFlagPrototyped, isOptimized: true)
!187 = !DIImportedEntity(tag: DW_TAG_imported_declaration, scope: !5, entity: !188, line: 268)
!188 = !DISubprogram(name: "sinh", linkageName: "_ZL4sinhf", scope: !6, file: !6, line: 176, type: !13, isLocal: true, isDefinition: false, flags: DIFlagPrototyped, isOptimized: true)
!189 = !DIImportedEntity(tag: DW_TAG_imported_declaration, scope: !5, entity: !190, line: 269)
!190 = !DISubprogram(name: "sqrt", linkageName: "_ZL4sqrtf", scope: !6, file: !6, line: 178, type: !13, isLocal: true, isDefinition: false, flags: DIFlagPrototyped, isOptimized: true)
!191 = !DIImportedEntity(tag: DW_TAG_imported_declaration, scope: !5, entity: !192, line: 270)
!192 = !DISubprogram(name: "tan", linkageName: "_ZL3tanf", scope: !6, file: !6, line: 180, type: !13, isLocal: true, isDefinition: false, flags: DIFlagPrototyped, isOptimized: true)
!193 = !DIImportedEntity(tag: DW_TAG_imported_declaration, scope: !5, entity: !194, line: 271)
!194 = !DISubprogram(name: "tanh", linkageName: "_ZL4tanhf", scope: !6, file: !6, line: 182, type: !13, isLocal: true, isDefinition: false, flags: DIFlagPrototyped, isOptimized: true)
!195 = !DIImportedEntity(tag: DW_TAG_imported_declaration, scope: !5, entity: !196, line: 272)
!196 = !DISubprogram(name: "tgamma", linkageName: "_ZL6tgammaf", scope: !6, file: !6, line: 184, type: !13, isLocal: true, isDefinition: false, flags: DIFlagPrototyped, isOptimized: true)
!197 = !DIImportedEntity(tag: DW_TAG_imported_declaration, scope: !5, entity: !198, line: 273)
!198 = !DISubprogram(name: "trunc", linkageName: "_ZL5truncf", scope: !6, file: !6, line: 186, type: !13, isLocal: true, isDefinition: false, flags: DIFlagPrototyped, isOptimized: true)
!199 = !DIImportedEntity(tag: DW_TAG_imported_declaration, scope: !5, entity: !200, line: 102)
!200 = !DISubprogram(name: "acos", scope: !201, file: !201, line: 54, type: !202, isLocal: false, isDefinition: false, flags: DIFlagPrototyped, isOptimized: true)
!201 = !DIFile(filename: "/usr/include/x86_64-linux-gnu/bits/mathcalls.h", directory: "/home/dshen/benchmarks/polybench-gpu-1.0/cuda/BICG")
!202 = !DISubroutineType(types: !203)
!203 = !{!149, !149}
!204 = !DIImportedEntity(tag: DW_TAG_imported_declaration, scope: !5, entity: !205, line: 121)
!205 = !DISubprogram(name: "asin", scope: !201, file: !201, line: 56, type: !202, isLocal: false, isDefinition: false, flags: DIFlagPrototyped, isOptimized: true)
!206 = !DIImportedEntity(tag: DW_TAG_imported_declaration, scope: !5, entity: !207, line: 140)
!207 = !DISubprogram(name: "atan", scope: !201, file: !201, line: 58, type: !202, isLocal: false, isDefinition: false, flags: DIFlagPrototyped, isOptimized: true)
!208 = !DIImportedEntity(tag: DW_TAG_imported_declaration, scope: !5, entity: !209, line: 159)
!209 = !DISubprogram(name: "atan2", scope: !201, file: !201, line: 60, type: !210, isLocal: false, isDefinition: false, flags: DIFlagPrototyped, isOptimized: true)
!210 = !DISubroutineType(types: !211)
!211 = !{!149, !149, !149}
!212 = !DIImportedEntity(tag: DW_TAG_imported_declaration, scope: !5, entity: !213, line: 180)
!213 = !DISubprogram(name: "ceil", scope: !201, file: !201, line: 178, type: !202, isLocal: false, isDefinition: false, flags: DIFlagPrototyped, isOptimized: true)
!214 = !DIImportedEntity(tag: DW_TAG_imported_declaration, scope: !5, entity: !215, line: 199)
!215 = !DISubprogram(name: "cos", scope: !201, file: !201, line: 63, type: !202, isLocal: false, isDefinition: false, flags: DIFlagPrototyped, isOptimized: true)
!216 = !DIImportedEntity(tag: DW_TAG_imported_declaration, scope: !5, entity: !217, line: 218)
!217 = !DISubprogram(name: "cosh", scope: !201, file: !201, line: 72, type: !202, isLocal: false, isDefinition: false, flags: DIFlagPrototyped, isOptimized: true)
!218 = !DIImportedEntity(tag: DW_TAG_imported_declaration, scope: !5, entity: !219, line: 237)
!219 = !DISubprogram(name: "exp", scope: !201, file: !201, line: 100, type: !202, isLocal: false, isDefinition: false, flags: DIFlagPrototyped, isOptimized: true)
!220 = !DIImportedEntity(tag: DW_TAG_imported_declaration, scope: !5, entity: !221, line: 256)
!221 = !DISubprogram(name: "fabs", scope: !201, file: !201, line: 181, type: !202, isLocal: false, isDefinition: false, flags: DIFlagPrototyped, isOptimized: true)
!222 = !DIImportedEntity(tag: DW_TAG_imported_declaration, scope: !5, entity: !223, line: 275)
!223 = !DISubprogram(name: "floor", scope: !201, file: !201, line: 184, type: !202, isLocal: false, isDefinition: false, flags: DIFlagPrototyped, isOptimized: true)
!224 = !DIImportedEntity(tag: DW_TAG_imported_declaration, scope: !5, entity: !225, line: 294)
!225 = !DISubprogram(name: "fmod", scope: !201, file: !201, line: 187, type: !210, isLocal: false, isDefinition: false, flags: DIFlagPrototyped, isOptimized: true)
!226 = !DIImportedEntity(tag: DW_TAG_imported_declaration, scope: !5, entity: !227, line: 315)
!227 = !DISubprogram(name: "frexp", scope: !201, file: !201, line: 103, type: !228, isLocal: false, isDefinition: false, flags: DIFlagPrototyped, isOptimized: true)
!228 = !DISubroutineType(types: !229)
!229 = !{!149, !149, !75}
!230 = !DIImportedEntity(tag: DW_TAG_imported_declaration, scope: !5, entity: !231, line: 334)
!231 = !DISubprogram(name: "ldexp", scope: !201, file: !201, line: 106, type: !232, isLocal: false, isDefinition: false, flags: DIFlagPrototyped, isOptimized: true)
!232 = !DISubroutineType(types: !233)
!233 = !{!149, !149, !70}
!234 = !DIImportedEntity(tag: DW_TAG_imported_declaration, scope: !5, entity: !235, line: 353)
!235 = !DISubprogram(name: "log", scope: !201, file: !201, line: 109, type: !202, isLocal: false, isDefinition: false, flags: DIFlagPrototyped, isOptimized: true)
!236 = !DIImportedEntity(tag: DW_TAG_imported_declaration, scope: !5, entity: !237, line: 372)
!237 = !DISubprogram(name: "log10", scope: !201, file: !201, line: 112, type: !202, isLocal: false, isDefinition: false, flags: DIFlagPrototyped, isOptimized: true)
!238 = !DIImportedEntity(tag: DW_TAG_imported_declaration, scope: !5, entity: !239, line: 391)
!239 = !DISubprogram(name: "modf", scope: !201, file: !201, line: 115, type: !240, isLocal: false, isDefinition: false, flags: DIFlagPrototyped, isOptimized: true)
!240 = !DISubroutineType(types: !241)
!241 = !{!149, !149, !242}
!242 = !DIDerivedType(tag: DW_TAG_pointer_type, baseType: !149, size: 64)
!243 = !DIImportedEntity(tag: DW_TAG_imported_declaration, scope: !5, entity: !244, line: 403)
!244 = !DISubprogram(name: "pow", scope: !201, file: !201, line: 153, type: !210, isLocal: false, isDefinition: false, flags: DIFlagPrototyped, isOptimized: true)
!245 = !DIImportedEntity(tag: DW_TAG_imported_declaration, scope: !5, entity: !246, line: 440)
!246 = !DISubprogram(name: "sin", scope: !201, file: !201, line: 65, type: !202, isLocal: false, isDefinition: false, flags: DIFlagPrototyped, isOptimized: true)
!247 = !DIImportedEntity(tag: DW_TAG_imported_declaration, scope: !5, entity: !248, line: 459)
!248 = !DISubprogram(name: "sinh", scope: !201, file: !201, line: 74, type: !202, isLocal: false, isDefinition: false, flags: DIFlagPrototyped, isOptimized: true)
!249 = !DIImportedEntity(tag: DW_TAG_imported_declaration, scope: !5, entity: !250, line: 478)
!250 = !DISubprogram(name: "sqrt", scope: !201, file: !201, line: 156, type: !202, isLocal: false, isDefinition: false, flags: DIFlagPrototyped, isOptimized: true)
!251 = !DIImportedEntity(tag: DW_TAG_imported_declaration, scope: !5, entity: !252, line: 497)
!252 = !DISubprogram(name: "tan", scope: !201, file: !201, line: 67, type: !202, isLocal: false, isDefinition: false, flags: DIFlagPrototyped, isOptimized: true)
!253 = !DIImportedEntity(tag: DW_TAG_imported_declaration, scope: !5, entity: !254, line: 516)
!254 = !DISubprogram(name: "tanh", scope: !201, file: !201, line: 76, type: !202, isLocal: false, isDefinition: false, flags: DIFlagPrototyped, isOptimized: true)
!255 = !DIImportedEntity(tag: DW_TAG_imported_declaration, scope: !5, entity: !256, line: 118)
!256 = !DIDerivedType(tag: DW_TAG_typedef, name: "div_t", file: !257, line: 101, baseType: !258)
!257 = !DIFile(filename: "/usr/include/stdlib.h", directory: "/home/dshen/benchmarks/polybench-gpu-1.0/cuda/BICG")
!258 = !DICompositeType(tag: DW_TAG_structure_type, file: !257, line: 97, flags: DIFlagFwdDecl, identifier: "_ZTS5div_t")
!259 = !DIImportedEntity(tag: DW_TAG_imported_declaration, scope: !5, entity: !260, line: 119)
!260 = !DIDerivedType(tag: DW_TAG_typedef, name: "ldiv_t", file: !257, line: 109, baseType: !261)
!261 = distinct !DICompositeType(tag: DW_TAG_structure_type, file: !257, line: 105, size: 128, elements: !262, identifier: "_ZTS6ldiv_t")
!262 = !{!263, !264}
!263 = !DIDerivedType(tag: DW_TAG_member, name: "quot", scope: !261, file: !257, line: 107, baseType: !109, size: 64)
!264 = !DIDerivedType(tag: DW_TAG_member, name: "rem", scope: !261, file: !257, line: 108, baseType: !109, size: 64, offset: 64)
!265 = !DIImportedEntity(tag: DW_TAG_imported_declaration, scope: !5, entity: !266, line: 121)
!266 = !DISubprogram(name: "abort", scope: !257, file: !257, line: 515, type: !267, isLocal: false, isDefinition: false, flags: DIFlagPrototyped | DIFlagNoReturn, isOptimized: true)
!267 = !DISubroutineType(types: !268)
!268 = !{null}
!269 = !DIImportedEntity(tag: DW_TAG_imported_declaration, scope: !5, entity: !270, line: 122)
!270 = !DISubprogram(name: "abs", scope: !257, file: !257, line: 775, type: !271, isLocal: false, isDefinition: false, flags: DIFlagPrototyped, isOptimized: true)
!271 = !DISubroutineType(types: !272)
!272 = !{!70, !70}
!273 = !DIImportedEntity(tag: DW_TAG_imported_declaration, scope: !5, entity: !274, line: 123)
!274 = !DISubprogram(name: "atexit", scope: !257, file: !257, line: 519, type: !275, isLocal: false, isDefinition: false, flags: DIFlagPrototyped, isOptimized: true)
!275 = !DISubroutineType(types: !276)
!276 = !{!70, !277}
!277 = !DIDerivedType(tag: DW_TAG_pointer_type, baseType: !267, size: 64)
!278 = !DIImportedEntity(tag: DW_TAG_imported_declaration, scope: !5, entity: !279, line: 129)
!279 = !DISubprogram(name: "atof", scope: !280, file: !280, line: 26, type: !147, isLocal: false, isDefinition: false, flags: DIFlagPrototyped, isOptimized: true)
!280 = !DIFile(filename: "/usr/include/x86_64-linux-gnu/bits/stdlib-float.h", directory: "/home/dshen/benchmarks/polybench-gpu-1.0/cuda/BICG")
!281 = !DIImportedEntity(tag: DW_TAG_imported_declaration, scope: !5, entity: !282, line: 130)
!282 = !DISubprogram(name: "atoi", scope: !257, file: !257, line: 278, type: !283, isLocal: false, isDefinition: false, flags: DIFlagPrototyped, isOptimized: true)
!283 = !DISubroutineType(types: !284)
!284 = !{!70, !150}
!285 = !DIImportedEntity(tag: DW_TAG_imported_declaration, scope: !5, entity: !286, line: 131)
!286 = !DISubprogram(name: "atol", scope: !257, file: !257, line: 283, type: !287, isLocal: false, isDefinition: false, flags: DIFlagPrototyped, isOptimized: true)
!287 = !DISubroutineType(types: !288)
!288 = !{!109, !150}
!289 = !DIImportedEntity(tag: DW_TAG_imported_declaration, scope: !5, entity: !290, line: 132)
!290 = !DISubprogram(name: "bsearch", scope: !291, file: !291, line: 20, type: !292, isLocal: false, isDefinition: false, flags: DIFlagPrototyped, isOptimized: true)
!291 = !DIFile(filename: "/usr/include/x86_64-linux-gnu/bits/stdlib-bsearch.h", directory: "/home/dshen/benchmarks/polybench-gpu-1.0/cuda/BICG")
!292 = !DISubroutineType(types: !293)
!293 = !{!294, !295, !295, !297, !297, !300}
!294 = !DIDerivedType(tag: DW_TAG_pointer_type, baseType: null, size: 64)
!295 = !DIDerivedType(tag: DW_TAG_pointer_type, baseType: !296, size: 64)
!296 = !DIDerivedType(tag: DW_TAG_const_type, baseType: null)
!297 = !DIDerivedType(tag: DW_TAG_typedef, name: "size_t", file: !298, line: 62, baseType: !299)
!298 = !DIFile(filename: "/home/dshen/llvm/build/bin/../lib/clang/5.0.0/include/stddef.h", directory: "/home/dshen/benchmarks/polybench-gpu-1.0/cuda/BICG")
!299 = !DIBasicType(name: "long unsigned int", size: 64, encoding: DW_ATE_unsigned)
!300 = !DIDerivedType(tag: DW_TAG_typedef, name: "__compar_fn_t", file: !257, line: 742, baseType: !301)
!301 = !DIDerivedType(tag: DW_TAG_pointer_type, baseType: !302, size: 64)
!302 = !DISubroutineType(types: !303)
!303 = !{!70, !295, !295}
!304 = !DIImportedEntity(tag: DW_TAG_imported_declaration, scope: !5, entity: !305, line: 133)
!305 = !DISubprogram(name: "calloc", scope: !257, file: !257, line: 468, type: !306, isLocal: false, isDefinition: false, flags: DIFlagPrototyped, isOptimized: true)
!306 = !DISubroutineType(types: !307)
!307 = !{!294, !297, !297}
!308 = !DIImportedEntity(tag: DW_TAG_imported_declaration, scope: !5, entity: !309, line: 134)
!309 = !DISubprogram(name: "div", scope: !257, file: !257, line: 789, type: !310, isLocal: false, isDefinition: false, flags: DIFlagPrototyped, isOptimized: true)
!310 = !DISubroutineType(types: !311)
!311 = !{!256, !70, !70}
!312 = !DIImportedEntity(tag: DW_TAG_imported_declaration, scope: !5, entity: !313, line: 135)
!313 = !DISubprogram(name: "exit", scope: !257, file: !257, line: 543, type: !314, isLocal: false, isDefinition: false, flags: DIFlagPrototyped | DIFlagNoReturn, isOptimized: true)
!314 = !DISubroutineType(types: !315)
!315 = !{null, !70}
!316 = !DIImportedEntity(tag: DW_TAG_imported_declaration, scope: !5, entity: !317, line: 136)
!317 = !DISubprogram(name: "free", scope: !257, file: !257, line: 483, type: !318, isLocal: false, isDefinition: false, flags: DIFlagPrototyped, isOptimized: true)
!318 = !DISubroutineType(types: !319)
!319 = !{null, !294}
!320 = !DIImportedEntity(tag: DW_TAG_imported_declaration, scope: !5, entity: !321, line: 137)
!321 = !DISubprogram(name: "getenv", scope: !257, file: !257, line: 564, type: !322, isLocal: false, isDefinition: false, flags: DIFlagPrototyped, isOptimized: true)
!322 = !DISubroutineType(types: !323)
!323 = !{!324, !150}
!324 = !DIDerivedType(tag: DW_TAG_pointer_type, baseType: !152, size: 64)
!325 = !DIImportedEntity(tag: DW_TAG_imported_declaration, scope: !5, entity: !326, line: 138)
!326 = !DISubprogram(name: "labs", scope: !257, file: !257, line: 776, type: !107, isLocal: false, isDefinition: false, flags: DIFlagPrototyped, isOptimized: true)
!327 = !DIImportedEntity(tag: DW_TAG_imported_declaration, scope: !5, entity: !328, line: 139)
!328 = !DISubprogram(name: "ldiv", scope: !257, file: !257, line: 791, type: !329, isLocal: false, isDefinition: false, flags: DIFlagPrototyped, isOptimized: true)
!329 = !DISubroutineType(types: !330)
!330 = !{!260, !109, !109}
!331 = !DIImportedEntity(tag: DW_TAG_imported_declaration, scope: !5, entity: !332, line: 140)
!332 = !DISubprogram(name: "malloc", scope: !257, file: !257, line: 466, type: !333, isLocal: false, isDefinition: false, flags: DIFlagPrototyped, isOptimized: true)
!333 = !DISubroutineType(types: !334)
!334 = !{!294, !297}
!335 = !DIImportedEntity(tag: DW_TAG_imported_declaration, scope: !5, entity: !336, line: 142)
!336 = !DISubprogram(name: "mblen", scope: !257, file: !257, line: 863, type: !337, isLocal: false, isDefinition: false, flags: DIFlagPrototyped, isOptimized: true)
!337 = !DISubroutineType(types: !338)
!338 = !{!70, !150, !297}
!339 = !DIImportedEntity(tag: DW_TAG_imported_declaration, scope: !5, entity: !340, line: 143)
!340 = !DISubprogram(name: "mbstowcs", scope: !257, file: !257, line: 874, type: !341, isLocal: false, isDefinition: false, flags: DIFlagPrototyped, isOptimized: true)
!341 = !DISubroutineType(types: !342)
!342 = !{!297, !343, !346, !297}
!343 = !DIDerivedType(tag: DW_TAG_restrict_type, baseType: !344)
!344 = !DIDerivedType(tag: DW_TAG_pointer_type, baseType: !345, size: 64)
!345 = !DIBasicType(name: "wchar_t", size: 32, encoding: DW_ATE_signed)
!346 = !DIDerivedType(tag: DW_TAG_restrict_type, baseType: !150)
!347 = !DIImportedEntity(tag: DW_TAG_imported_declaration, scope: !5, entity: !348, line: 144)
!348 = !DISubprogram(name: "mbtowc", scope: !257, file: !257, line: 866, type: !349, isLocal: false, isDefinition: false, flags: DIFlagPrototyped, isOptimized: true)
!349 = !DISubroutineType(types: !350)
!350 = !{!70, !343, !346, !297}
!351 = !DIImportedEntity(tag: DW_TAG_imported_declaration, scope: !5, entity: !352, line: 146)
!352 = !DISubprogram(name: "qsort", scope: !257, file: !257, line: 765, type: !353, isLocal: false, isDefinition: false, flags: DIFlagPrototyped, isOptimized: true)
!353 = !DISubroutineType(types: !354)
!354 = !{null, !294, !297, !297, !300}
!355 = !DIImportedEntity(tag: DW_TAG_imported_declaration, scope: !5, entity: !356, line: 152)
!356 = !DISubprogram(name: "rand", scope: !257, file: !257, line: 374, type: !357, isLocal: false, isDefinition: false, flags: DIFlagPrototyped, isOptimized: true)
!357 = !DISubroutineType(types: !358)
!358 = !{!70}
!359 = !DIImportedEntity(tag: DW_TAG_imported_declaration, scope: !5, entity: !360, line: 153)
!360 = !DISubprogram(name: "realloc", scope: !257, file: !257, line: 480, type: !361, isLocal: false, isDefinition: false, flags: DIFlagPrototyped, isOptimized: true)
!361 = !DISubroutineType(types: !362)
!362 = !{!294, !294, !297}
!363 = !DIImportedEntity(tag: DW_TAG_imported_declaration, scope: !5, entity: !364, line: 154)
!364 = !DISubprogram(name: "srand", scope: !257, file: !257, line: 376, type: !365, isLocal: false, isDefinition: false, flags: DIFlagPrototyped, isOptimized: true)
!365 = !DISubroutineType(types: !366)
!366 = !{null, !367}
!367 = !DIBasicType(name: "unsigned int", size: 32, encoding: DW_ATE_unsigned)
!368 = !DIImportedEntity(tag: DW_TAG_imported_declaration, scope: !5, entity: !369, line: 155)
!369 = !DISubprogram(name: "strtod", scope: !257, file: !257, line: 164, type: !370, isLocal: false, isDefinition: false, flags: DIFlagPrototyped, isOptimized: true)
!370 = !DISubroutineType(types: !371)
!371 = !{!149, !346, !372}
!372 = !DIDerivedType(tag: DW_TAG_restrict_type, baseType: !373)
!373 = !DIDerivedType(tag: DW_TAG_pointer_type, baseType: !324, size: 64)
!374 = !DIImportedEntity(tag: DW_TAG_imported_declaration, scope: !5, entity: !375, line: 156)
!375 = !DISubprogram(name: "strtol", scope: !257, file: !257, line: 183, type: !376, isLocal: false, isDefinition: false, flags: DIFlagPrototyped, isOptimized: true)
!376 = !DISubroutineType(types: !377)
!377 = !{!109, !346, !372, !70}
!378 = !DIImportedEntity(tag: DW_TAG_imported_declaration, scope: !5, entity: !379, line: 157)
!379 = !DISubprogram(name: "strtoul", scope: !257, file: !257, line: 187, type: !380, isLocal: false, isDefinition: false, flags: DIFlagPrototyped, isOptimized: true)
!380 = !DISubroutineType(types: !381)
!381 = !{!299, !346, !372, !70}
!382 = !DIImportedEntity(tag: DW_TAG_imported_declaration, scope: !5, entity: !383, line: 158)
!383 = !DISubprogram(name: "system", scope: !257, file: !257, line: 717, type: !283, isLocal: false, isDefinition: false, flags: DIFlagPrototyped, isOptimized: true)
!384 = !DIImportedEntity(tag: DW_TAG_imported_declaration, scope: !5, entity: !385, line: 160)
!385 = !DISubprogram(name: "wcstombs", scope: !257, file: !257, line: 877, type: !386, isLocal: false, isDefinition: false, flags: DIFlagPrototyped, isOptimized: true)
!386 = !DISubroutineType(types: !387)
!387 = !{!297, !388, !389, !297}
!388 = !DIDerivedType(tag: DW_TAG_restrict_type, baseType: !324)
!389 = !DIDerivedType(tag: DW_TAG_restrict_type, baseType: !390)
!390 = !DIDerivedType(tag: DW_TAG_pointer_type, baseType: !391, size: 64)
!391 = !DIDerivedType(tag: DW_TAG_const_type, baseType: !345)
!392 = !DIImportedEntity(tag: DW_TAG_imported_declaration, scope: !5, entity: !393, line: 161)
!393 = !DISubprogram(name: "wctomb", scope: !257, file: !257, line: 870, type: !394, isLocal: false, isDefinition: false, flags: DIFlagPrototyped, isOptimized: true)
!394 = !DISubroutineType(types: !395)
!395 = !{!70, !324, !345}
!396 = !DIImportedEntity(tag: DW_TAG_imported_declaration, scope: !397, entity: !399, line: 201)
!397 = !DINamespace(name: "__gnu_cxx", scope: null, file: !398, line: 68)
!398 = !DIFile(filename: "/usr/lib/gcc/x86_64-linux-gnu/4.8/../../../../include/c++/4.8/bits/cpp_type_traits.h", directory: "/home/dshen/benchmarks/polybench-gpu-1.0/cuda/BICG")
!399 = !DIDerivedType(tag: DW_TAG_typedef, name: "lldiv_t", file: !257, line: 121, baseType: !400)
!400 = distinct !DICompositeType(tag: DW_TAG_structure_type, file: !257, line: 117, size: 128, elements: !401, identifier: "_ZTS7lldiv_t")
!401 = !{!402, !403}
!402 = !DIDerivedType(tag: DW_TAG_member, name: "quot", scope: !400, file: !257, line: 119, baseType: !10, size: 64)
!403 = !DIDerivedType(tag: DW_TAG_member, name: "rem", scope: !400, file: !257, line: 120, baseType: !10, size: 64, offset: 64)
!404 = !DIImportedEntity(tag: DW_TAG_imported_declaration, scope: !397, entity: !405, line: 207)
!405 = !DISubprogram(name: "_Exit", scope: !257, file: !257, line: 557, type: !314, isLocal: false, isDefinition: false, flags: DIFlagPrototyped | DIFlagNoReturn, isOptimized: true)
!406 = !DIImportedEntity(tag: DW_TAG_imported_declaration, scope: !397, entity: !407, line: 211)
!407 = !DISubprogram(name: "llabs", scope: !257, file: !257, line: 780, type: !8, isLocal: false, isDefinition: false, flags: DIFlagPrototyped, isOptimized: true)
!408 = !DIImportedEntity(tag: DW_TAG_imported_declaration, scope: !397, entity: !409, line: 217)
!409 = !DISubprogram(name: "lldiv", scope: !257, file: !257, line: 797, type: !410, isLocal: false, isDefinition: false, flags: DIFlagPrototyped, isOptimized: true)
!410 = !DISubroutineType(types: !411)
!411 = !{!399, !10, !10}
!412 = !DIImportedEntity(tag: DW_TAG_imported_declaration, scope: !397, entity: !413, line: 228)
!413 = !DISubprogram(name: "atoll", scope: !257, file: !257, line: 292, type: !414, isLocal: false, isDefinition: false, flags: DIFlagPrototyped, isOptimized: true)
!414 = !DISubroutineType(types: !415)
!415 = !{!10, !150}
!416 = !DIImportedEntity(tag: DW_TAG_imported_declaration, scope: !397, entity: !417, line: 229)
!417 = !DISubprogram(name: "strtoll", scope: !257, file: !257, line: 209, type: !418, isLocal: false, isDefinition: false, flags: DIFlagPrototyped, isOptimized: true)
!418 = !DISubroutineType(types: !419)
!419 = !{!10, !346, !372, !70}
!420 = !DIImportedEntity(tag: DW_TAG_imported_declaration, scope: !397, entity: !421, line: 230)
!421 = !DISubprogram(name: "strtoull", scope: !257, file: !257, line: 214, type: !422, isLocal: false, isDefinition: false, flags: DIFlagPrototyped, isOptimized: true)
!422 = !DISubroutineType(types: !423)
!423 = !{!424, !346, !372, !70}
!424 = !DIBasicType(name: "long long unsigned int", size: 64, encoding: DW_ATE_unsigned)
!425 = !DIImportedEntity(tag: DW_TAG_imported_declaration, scope: !397, entity: !426, line: 232)
!426 = !DISubprogram(name: "strtof", scope: !257, file: !257, line: 172, type: !427, isLocal: false, isDefinition: false, flags: DIFlagPrototyped, isOptimized: true)
!427 = !DISubroutineType(types: !428)
!428 = !{!15, !346, !372}
!429 = !DIImportedEntity(tag: DW_TAG_imported_declaration, scope: !397, entity: !430, line: 233)
!430 = !DISubprogram(name: "strtold", scope: !257, file: !257, line: 175, type: !431, isLocal: false, isDefinition: false, flags: DIFlagPrototyped, isOptimized: true)
!431 = !DISubroutineType(types: !432)
!432 = !{!433, !346, !372}
!433 = !DIBasicType(name: "long double", size: 64, encoding: DW_ATE_float)
!434 = !DIImportedEntity(tag: DW_TAG_imported_declaration, scope: !5, entity: !399, line: 241)
!435 = !DIImportedEntity(tag: DW_TAG_imported_declaration, scope: !5, entity: !405, line: 243)
!436 = !DIImportedEntity(tag: DW_TAG_imported_declaration, scope: !5, entity: !407, line: 245)
!437 = !DIImportedEntity(tag: DW_TAG_imported_declaration, scope: !5, entity: !438, line: 246)
!438 = !DISubprogram(name: "div", linkageName: "_ZN9__gnu_cxx3divExx", scope: !397, file: !439, line: 214, type: !410, isLocal: false, isDefinition: false, flags: DIFlagPrototyped, isOptimized: true)
!439 = !DIFile(filename: "/usr/lib/gcc/x86_64-linux-gnu/4.8/../../../../include/c++/4.8/cstdlib", directory: "/home/dshen/benchmarks/polybench-gpu-1.0/cuda/BICG")
!440 = !DIImportedEntity(tag: DW_TAG_imported_declaration, scope: !5, entity: !409, line: 247)
!441 = !DIImportedEntity(tag: DW_TAG_imported_declaration, scope: !5, entity: !413, line: 249)
!442 = !DIImportedEntity(tag: DW_TAG_imported_declaration, scope: !5, entity: !426, line: 250)
!443 = !DIImportedEntity(tag: DW_TAG_imported_declaration, scope: !5, entity: !417, line: 251)
!444 = !DIImportedEntity(tag: DW_TAG_imported_declaration, scope: !5, entity: !421, line: 252)
!445 = !DIImportedEntity(tag: DW_TAG_imported_declaration, scope: !5, entity: !430, line: 253)
!446 = !DIImportedEntity(tag: DW_TAG_imported_declaration, scope: !5, entity: !447, line: 418)
!447 = !DISubprogram(name: "acosf", linkageName: "_ZL5acosff", scope: !448, file: !448, line: 1126, type: !13, isLocal: true, isDefinition: false, flags: DIFlagPrototyped, isOptimized: true)
!448 = !DIFile(filename: "/usr/local/cuda/include/math_functions.hpp", directory: "/home/dshen/benchmarks/polybench-gpu-1.0/cuda/BICG")
!449 = !DIImportedEntity(tag: DW_TAG_imported_declaration, scope: !5, entity: !450, line: 419)
!450 = !DISubprogram(name: "acoshf", linkageName: "_ZL6acoshff", scope: !448, file: !448, line: 1154, type: !13, isLocal: true, isDefinition: false, flags: DIFlagPrototyped, isOptimized: true)
!451 = !DIImportedEntity(tag: DW_TAG_imported_declaration, scope: !5, entity: !452, line: 420)
!452 = !DISubprogram(name: "asinf", linkageName: "_ZL5asinff", scope: !448, file: !448, line: 1121, type: !13, isLocal: true, isDefinition: false, flags: DIFlagPrototyped, isOptimized: true)
!453 = !DIImportedEntity(tag: DW_TAG_imported_declaration, scope: !5, entity: !454, line: 421)
!454 = !DISubprogram(name: "asinhf", linkageName: "_ZL6asinhff", scope: !448, file: !448, line: 1159, type: !13, isLocal: true, isDefinition: false, flags: DIFlagPrototyped, isOptimized: true)
!455 = !DIImportedEntity(tag: DW_TAG_imported_declaration, scope: !5, entity: !456, line: 422)
!456 = !DISubprogram(name: "atan2f", linkageName: "_ZL6atan2fff", scope: !448, file: !448, line: 1111, type: !26, isLocal: true, isDefinition: false, flags: DIFlagPrototyped, isOptimized: true)
!457 = !DIImportedEntity(tag: DW_TAG_imported_declaration, scope: !5, entity: !458, line: 423)
!458 = !DISubprogram(name: "atanf", linkageName: "_ZL5atanff", scope: !448, file: !448, line: 1116, type: !13, isLocal: true, isDefinition: false, flags: DIFlagPrototyped, isOptimized: true)
!459 = !DIImportedEntity(tag: DW_TAG_imported_declaration, scope: !5, entity: !460, line: 424)
!460 = !DISubprogram(name: "atanhf", linkageName: "_ZL6atanhff", scope: !448, file: !448, line: 1164, type: !13, isLocal: true, isDefinition: false, flags: DIFlagPrototyped, isOptimized: true)
!461 = !DIImportedEntity(tag: DW_TAG_imported_declaration, scope: !5, entity: !462, line: 425)
!462 = !DISubprogram(name: "cbrtf", linkageName: "_ZL5cbrtff", scope: !448, file: !448, line: 1199, type: !13, isLocal: true, isDefinition: false, flags: DIFlagPrototyped, isOptimized: true)
!463 = !DIImportedEntity(tag: DW_TAG_imported_declaration, scope: !5, entity: !464, line: 426)
!464 = !DISubprogram(name: "ceilf", linkageName: "_ZL5ceilff", scope: !465, file: !465, line: 647, type: !13, isLocal: true, isDefinition: false, flags: DIFlagPrototyped, isOptimized: true)
!465 = !DIFile(filename: "/usr/local/cuda/include/device_functions.hpp", directory: "/home/dshen/benchmarks/polybench-gpu-1.0/cuda/BICG")
!466 = !DIImportedEntity(tag: DW_TAG_imported_declaration, scope: !5, entity: !467, line: 427)
!467 = !DISubprogram(name: "copysignf", linkageName: "_ZL9copysignfff", scope: !448, file: !448, line: 973, type: !26, isLocal: true, isDefinition: false, flags: DIFlagPrototyped, isOptimized: true)
!468 = !DIImportedEntity(tag: DW_TAG_imported_declaration, scope: !5, entity: !469, line: 428)
!469 = !DISubprogram(name: "cosf", linkageName: "_ZL4cosff", scope: !448, file: !448, line: 1027, type: !13, isLocal: true, isDefinition: false, flags: DIFlagPrototyped, isOptimized: true)
!470 = !DIImportedEntity(tag: DW_TAG_imported_declaration, scope: !5, entity: !471, line: 429)
!471 = !DISubprogram(name: "coshf", linkageName: "_ZL5coshff", scope: !448, file: !448, line: 1096, type: !13, isLocal: true, isDefinition: false, flags: DIFlagPrototyped, isOptimized: true)
!472 = !DIImportedEntity(tag: DW_TAG_imported_declaration, scope: !5, entity: !473, line: 430)
!473 = !DISubprogram(name: "erfcf", linkageName: "_ZL5erfcff", scope: !448, file: !448, line: 1259, type: !13, isLocal: true, isDefinition: false, flags: DIFlagPrototyped, isOptimized: true)
!474 = !DIImportedEntity(tag: DW_TAG_imported_declaration, scope: !5, entity: !475, line: 431)
!475 = !DISubprogram(name: "erff", linkageName: "_ZL4erfff", scope: !448, file: !448, line: 1249, type: !13, isLocal: true, isDefinition: false, flags: DIFlagPrototyped, isOptimized: true)
!476 = !DIImportedEntity(tag: DW_TAG_imported_declaration, scope: !5, entity: !477, line: 432)
!477 = !DISubprogram(name: "exp2f", linkageName: "_ZL5exp2ff", scope: !465, file: !465, line: 637, type: !13, isLocal: true, isDefinition: false, flags: DIFlagPrototyped, isOptimized: true)
!478 = !DIImportedEntity(tag: DW_TAG_imported_declaration, scope: !5, entity: !479, line: 433)
!479 = !DISubprogram(name: "expf", linkageName: "_ZL4expff", scope: !448, file: !448, line: 1078, type: !13, isLocal: true, isDefinition: false, flags: DIFlagPrototyped, isOptimized: true)
!480 = !DIImportedEntity(tag: DW_TAG_imported_declaration, scope: !5, entity: !481, line: 434)
!481 = !DISubprogram(name: "expm1f", linkageName: "_ZL6expm1ff", scope: !448, file: !448, line: 1169, type: !13, isLocal: true, isDefinition: false, flags: DIFlagPrototyped, isOptimized: true)
!482 = !DIImportedEntity(tag: DW_TAG_imported_declaration, scope: !5, entity: !483, line: 435)
!483 = !DISubprogram(name: "fabsf", linkageName: "_ZL5fabsff", scope: !465, file: !465, line: 582, type: !13, isLocal: true, isDefinition: false, flags: DIFlagPrototyped, isOptimized: true)
!484 = !DIImportedEntity(tag: DW_TAG_imported_declaration, scope: !5, entity: !485, line: 436)
!485 = !DISubprogram(name: "fdimf", linkageName: "_ZL5fdimfff", scope: !448, file: !448, line: 1385, type: !26, isLocal: true, isDefinition: false, flags: DIFlagPrototyped, isOptimized: true)
!486 = !DIImportedEntity(tag: DW_TAG_imported_declaration, scope: !5, entity: !487, line: 437)
!487 = !DISubprogram(name: "floorf", linkageName: "_ZL6floorff", scope: !465, file: !465, line: 572, type: !13, isLocal: true, isDefinition: false, flags: DIFlagPrototyped, isOptimized: true)
!488 = !DIImportedEntity(tag: DW_TAG_imported_declaration, scope: !5, entity: !489, line: 438)
!489 = !DISubprogram(name: "fmaf", linkageName: "_ZL4fmaffff", scope: !448, file: !448, line: 1337, type: !58, isLocal: true, isDefinition: false, flags: DIFlagPrototyped, isOptimized: true)
!490 = !DIImportedEntity(tag: DW_TAG_imported_declaration, scope: !5, entity: !491, line: 439)
!491 = !DISubprogram(name: "fmaxf", linkageName: "_ZL5fmaxfff", scope: !465, file: !465, line: 602, type: !26, isLocal: true, isDefinition: false, flags: DIFlagPrototyped, isOptimized: true)
!492 = !DIImportedEntity(tag: DW_TAG_imported_declaration, scope: !5, entity: !493, line: 440)
!493 = !DISubprogram(name: "fminf", linkageName: "_ZL5fminfff", scope: !465, file: !465, line: 597, type: !26, isLocal: true, isDefinition: false, flags: DIFlagPrototyped, isOptimized: true)
!494 = !DIImportedEntity(tag: DW_TAG_imported_declaration, scope: !5, entity: !495, line: 441)
!495 = !DISubprogram(name: "fmodf", linkageName: "_ZL5fmodfff", scope: !448, file: !448, line: 1322, type: !26, isLocal: true, isDefinition: false, flags: DIFlagPrototyped, isOptimized: true)
!496 = !DIImportedEntity(tag: DW_TAG_imported_declaration, scope: !5, entity: !497, line: 442)
!497 = !DISubprogram(name: "frexpf", linkageName: "_ZL6frexpffPi", scope: !448, file: !448, line: 1312, type: !73, isLocal: true, isDefinition: false, flags: DIFlagPrototyped, isOptimized: true)
!498 = !DIImportedEntity(tag: DW_TAG_imported_declaration, scope: !5, entity: !499, line: 443)
!499 = !DISubprogram(name: "hypotf", linkageName: "_ZL6hypotfff", scope: !448, file: !448, line: 1174, type: !26, isLocal: true, isDefinition: false, flags: DIFlagPrototyped, isOptimized: true)
!500 = !DIImportedEntity(tag: DW_TAG_imported_declaration, scope: !5, entity: !501, line: 444)
!501 = !DISubprogram(name: "ilogbf", linkageName: "_ZL6ilogbff", scope: !448, file: !448, line: 1390, type: !68, isLocal: true, isDefinition: false, flags: DIFlagPrototyped, isOptimized: true)
!502 = !DIImportedEntity(tag: DW_TAG_imported_declaration, scope: !5, entity: !503, line: 445)
!503 = !DISubprogram(name: "ldexpf", linkageName: "_ZL6ldexpffi", scope: !448, file: !448, line: 1289, type: !112, isLocal: true, isDefinition: false, flags: DIFlagPrototyped, isOptimized: true)
!504 = !DIImportedEntity(tag: DW_TAG_imported_declaration, scope: !5, entity: !505, line: 446)
!505 = !DISubprogram(name: "lgammaf", linkageName: "_ZL7lgammaff", scope: !448, file: !448, line: 1284, type: !13, isLocal: true, isDefinition: false, flags: DIFlagPrototyped, isOptimized: true)
!506 = !DIImportedEntity(tag: DW_TAG_imported_declaration, scope: !5, entity: !507, line: 447)
!507 = !DISubprogram(name: "llrintf", linkageName: "_ZL7llrintff", scope: !448, file: !448, line: 933, type: !120, isLocal: true, isDefinition: false, flags: DIFlagPrototyped, isOptimized: true)
!508 = !DIImportedEntity(tag: DW_TAG_imported_declaration, scope: !5, entity: !509, line: 448)
!509 = !DISubprogram(name: "llroundf", linkageName: "_ZL8llroundff", scope: !448, file: !448, line: 1371, type: !120, isLocal: true, isDefinition: false, flags: DIFlagPrototyped, isOptimized: true)
!510 = !DIImportedEntity(tag: DW_TAG_imported_declaration, scope: !5, entity: !511, line: 449)
!511 = !DISubprogram(name: "log10f", linkageName: "_ZL6log10ff", scope: !448, file: !448, line: 1140, type: !13, isLocal: true, isDefinition: false, flags: DIFlagPrototyped, isOptimized: true)
!512 = !DIImportedEntity(tag: DW_TAG_imported_declaration, scope: !5, entity: !513, line: 450)
!513 = !DISubprogram(name: "log1pf", linkageName: "_ZL6log1pff", scope: !448, file: !448, line: 1149, type: !13, isLocal: true, isDefinition: false, flags: DIFlagPrototyped, isOptimized: true)
!514 = !DIImportedEntity(tag: DW_TAG_imported_declaration, scope: !5, entity: !515, line: 451)
!515 = !DISubprogram(name: "log2f", linkageName: "_ZL5log2ff", scope: !448, file: !448, line: 1069, type: !13, isLocal: true, isDefinition: false, flags: DIFlagPrototyped, isOptimized: true)
!516 = !DIImportedEntity(tag: DW_TAG_imported_declaration, scope: !5, entity: !517, line: 452)
!517 = !DISubprogram(name: "logbf", linkageName: "_ZL5logbff", scope: !448, file: !448, line: 1395, type: !13, isLocal: true, isDefinition: false, flags: DIFlagPrototyped, isOptimized: true)
!518 = !DIImportedEntity(tag: DW_TAG_imported_declaration, scope: !5, entity: !519, line: 453)
!519 = !DISubprogram(name: "logf", linkageName: "_ZL4logff", scope: !448, file: !448, line: 1131, type: !13, isLocal: true, isDefinition: false, flags: DIFlagPrototyped, isOptimized: true)
!520 = !DIImportedEntity(tag: DW_TAG_imported_declaration, scope: !5, entity: !521, line: 454)
!521 = !DISubprogram(name: "lrintf", linkageName: "_ZL6lrintff", scope: !448, file: !448, line: 924, type: !134, isLocal: true, isDefinition: false, flags: DIFlagPrototyped, isOptimized: true)
!522 = !DIImportedEntity(tag: DW_TAG_imported_declaration, scope: !5, entity: !523, line: 455)
!523 = !DISubprogram(name: "lroundf", linkageName: "_ZL7lroundff", scope: !448, file: !448, line: 1376, type: !134, isLocal: true, isDefinition: false, flags: DIFlagPrototyped, isOptimized: true)
!524 = !DIImportedEntity(tag: DW_TAG_imported_declaration, scope: !5, entity: !525, line: 456)
!525 = !DISubprogram(name: "modff", linkageName: "_ZL5modfffPf", scope: !448, file: !448, line: 1317, type: !142, isLocal: true, isDefinition: false, flags: DIFlagPrototyped, isOptimized: true)
!526 = !DIImportedEntity(tag: DW_TAG_imported_declaration, scope: !5, entity: !527, line: 457)
!527 = !DISubprogram(name: "nearbyintf", linkageName: "_ZL10nearbyintff", scope: !448, file: !448, line: 938, type: !13, isLocal: true, isDefinition: false, flags: DIFlagPrototyped, isOptimized: true)
!528 = !DIImportedEntity(tag: DW_TAG_imported_declaration, scope: !5, entity: !529, line: 458)
!529 = !DISubprogram(name: "nextafterf", linkageName: "_ZL10nextafterfff", scope: !448, file: !448, line: 1002, type: !26, isLocal: true, isDefinition: false, flags: DIFlagPrototyped, isOptimized: true)
!530 = !DIImportedEntity(tag: DW_TAG_imported_declaration, scope: !5, entity: !531, line: 459)
!531 = !DISubprogram(name: "nexttowardf", scope: !201, file: !201, line: 284, type: !532, isLocal: false, isDefinition: false, flags: DIFlagPrototyped, isOptimized: true)
!532 = !DISubroutineType(types: !533)
!533 = !{!15, !15, !433}
!534 = !DIImportedEntity(tag: DW_TAG_imported_declaration, scope: !5, entity: !531, line: 460)
!535 = !DIImportedEntity(tag: DW_TAG_imported_declaration, scope: !5, entity: !536, line: 461)
!536 = !DISubprogram(name: "powf", linkageName: "_ZL4powfff", scope: !448, file: !448, line: 1352, type: !26, isLocal: true, isDefinition: false, flags: DIFlagPrototyped, isOptimized: true)
!537 = !DIImportedEntity(tag: DW_TAG_imported_declaration, scope: !5, entity: !538, line: 462)
!538 = !DISubprogram(name: "remainderf", linkageName: "_ZL10remainderfff", scope: !448, file: !448, line: 1327, type: !26, isLocal: true, isDefinition: false, flags: DIFlagPrototyped, isOptimized: true)
!539 = !DIImportedEntity(tag: DW_TAG_imported_declaration, scope: !5, entity: !540, line: 463)
!540 = !DISubprogram(name: "remquof", linkageName: "_ZL7remquofffPi", scope: !448, file: !448, line: 1332, type: !171, isLocal: true, isDefinition: false, flags: DIFlagPrototyped, isOptimized: true)
!541 = !DIImportedEntity(tag: DW_TAG_imported_declaration, scope: !5, entity: !542, line: 464)
!542 = !DISubprogram(name: "rintf", linkageName: "_ZL5rintff", scope: !448, file: !448, line: 919, type: !13, isLocal: true, isDefinition: false, flags: DIFlagPrototyped, isOptimized: true)
!543 = !DIImportedEntity(tag: DW_TAG_imported_declaration, scope: !5, entity: !544, line: 465)
!544 = !DISubprogram(name: "roundf", linkageName: "_ZL6roundff", scope: !448, file: !448, line: 1366, type: !13, isLocal: true, isDefinition: false, flags: DIFlagPrototyped, isOptimized: true)
!545 = !DIImportedEntity(tag: DW_TAG_imported_declaration, scope: !5, entity: !546, line: 466)
!546 = !DISubprogram(name: "scalblnf", linkageName: "_ZL8scalblnffl", scope: !448, file: !448, line: 1299, type: !179, isLocal: true, isDefinition: false, flags: DIFlagPrototyped, isOptimized: true)
!547 = !DIImportedEntity(tag: DW_TAG_imported_declaration, scope: !5, entity: !548, line: 467)
!548 = !DISubprogram(name: "scalbnf", linkageName: "_ZL7scalbnffi", scope: !448, file: !448, line: 1294, type: !112, isLocal: true, isDefinition: false, flags: DIFlagPrototyped, isOptimized: true)
!549 = !DIImportedEntity(tag: DW_TAG_imported_declaration, scope: !5, entity: !550, line: 468)
!550 = !DISubprogram(name: "sinf", linkageName: "_ZL4sinff", scope: !448, file: !448, line: 1018, type: !13, isLocal: true, isDefinition: false, flags: DIFlagPrototyped, isOptimized: true)
!551 = !DIImportedEntity(tag: DW_TAG_imported_declaration, scope: !5, entity: !552, line: 469)
!552 = !DISubprogram(name: "sinhf", linkageName: "_ZL5sinhff", scope: !448, file: !448, line: 1101, type: !13, isLocal: true, isDefinition: false, flags: DIFlagPrototyped, isOptimized: true)
!553 = !DIImportedEntity(tag: DW_TAG_imported_declaration, scope: !5, entity: !554, line: 470)
!554 = !DISubprogram(name: "sqrtf", linkageName: "_ZL5sqrtff", scope: !465, file: !465, line: 887, type: !13, isLocal: true, isDefinition: false, flags: DIFlagPrototyped, isOptimized: true)
!555 = !DIImportedEntity(tag: DW_TAG_imported_declaration, scope: !5, entity: !556, line: 471)
!556 = !DISubprogram(name: "tanf", linkageName: "_ZL4tanff", scope: !448, file: !448, line: 1060, type: !13, isLocal: true, isDefinition: false, flags: DIFlagPrototyped, isOptimized: true)
!557 = !DIImportedEntity(tag: DW_TAG_imported_declaration, scope: !5, entity: !558, line: 472)
!558 = !DISubprogram(name: "tanhf", linkageName: "_ZL5tanhff", scope: !448, file: !448, line: 1106, type: !13, isLocal: true, isDefinition: false, flags: DIFlagPrototyped, isOptimized: true)
!559 = !DIImportedEntity(tag: DW_TAG_imported_declaration, scope: !5, entity: !560, line: 473)
!560 = !DISubprogram(name: "tgammaf", linkageName: "_ZL7tgammaff", scope: !448, file: !448, line: 1361, type: !13, isLocal: true, isDefinition: false, flags: DIFlagPrototyped, isOptimized: true)
!561 = !DIImportedEntity(tag: DW_TAG_imported_declaration, scope: !5, entity: !562, line: 474)
!562 = !DISubprogram(name: "truncf", linkageName: "_ZL6truncff", scope: !465, file: !465, line: 642, type: !13, isLocal: true, isDefinition: false, flags: DIFlagPrototyped, isOptimized: true)
!563 = !{void (float*, float*, float*)* @_Z12bicg_kernel1PfS_S_, !"kernel", i32 1}
!564 = !{void (float*, float*, float*)* @_Z12bicg_kernel2PfS_S_, !"kernel", i32 1}
!565 = !{null, !"align", i32 8}
!566 = !{null, !"align", i32 8, !"align", i32 65544, !"align", i32 131080}
!567 = !{null, !"align", i32 16}
!568 = !{null, !"align", i32 16, !"align", i32 65552, !"align", i32 131088}
!569 = !{i32 2, !"Dwarf Version", i32 4}
!570 = !{i32 2, !"Debug Info Version", i32 3}
!571 = !{i32 4, !"nvvm-reflect-ftz", i32 0}
!572 = !{!"clang version 5.0.0 (trunk 294196)"}
!573 = !{i32 1, i32 2}
!574 = distinct !DISubprogram(name: "bicg_kernel1", linkageName: "_Z12bicg_kernel1PfS_S_", scope: !1, file: !1, line: 99, type: !575, isLocal: false, isDefinition: true, scopeLine: 100, flags: DIFlagPrototyped, isOptimized: true, unit: !0, variables: !579)
!575 = !DISubroutineType(types: !576)
!576 = !{null, !577, !577, !577}
!577 = !DIDerivedType(tag: DW_TAG_pointer_type, baseType: !578, size: 64)
!578 = !DIDerivedType(tag: DW_TAG_typedef, name: "DATA_TYPE", file: !1, line: 37, baseType: !15)
!579 = !{!580, !581, !582, !583, !584}
!580 = !DILocalVariable(name: "A", arg: 1, scope: !574, file: !1, line: 99, type: !577)
!581 = !DILocalVariable(name: "r", arg: 2, scope: !574, file: !1, line: 99, type: !577)
!582 = !DILocalVariable(name: "s", arg: 3, scope: !574, file: !1, line: 99, type: !577)
!583 = !DILocalVariable(name: "j", scope: !574, file: !1, line: 101, type: !70)
!584 = !DILocalVariable(name: "i", scope: !585, file: !1, line: 107, type: !70)
!585 = distinct !DILexicalBlock(scope: !586, file: !1, line: 104, column: 2)
!586 = distinct !DILexicalBlock(scope: !574, file: !1, line: 103, column: 6)
!587 = !DIExpression()
!588 = !DILocation(line: 99, column: 41, scope: !574)
!589 = !DILocation(line: 99, column: 55, scope: !574)
!590 = !DILocation(line: 99, column: 69, scope: !574)
!591 = !DILocation(line: 78, column: 3, scope: !592, inlinedAt: !627)
!592 = distinct !DISubprogram(name: "__fetch_builtin_x", linkageName: "_ZN25__cuda_builtin_blockIdx_t17__fetch_builtin_xEv", scope: !594, file: !593, line: 78, type: !597, isLocal: false, isDefinition: true, scopeLine: 78, flags: DIFlagPrototyped, isOptimized: true, unit: !0, declaration: !596, variables: !2)
!593 = !DIFile(filename: "/home/dshen/llvm/build/bin/../lib/clang/5.0.0/include/__clang_cuda_builtin_vars.h", directory: "/home/dshen/benchmarks/polybench-gpu-1.0/cuda/BICG")
!594 = distinct !DICompositeType(tag: DW_TAG_structure_type, name: "__cuda_builtin_blockIdx_t", file: !593, line: 77, size: 8, elements: !595, identifier: "_ZTS25__cuda_builtin_blockIdx_t")
!595 = !{!596, !599, !600, !601, !612, !616, !620, !623}
!596 = !DISubprogram(name: "__fetch_builtin_x", linkageName: "_ZN25__cuda_builtin_blockIdx_t17__fetch_builtin_xEv", scope: !594, file: !593, line: 78, type: !597, isLocal: false, isDefinition: false, scopeLine: 78, flags: DIFlagPrototyped, isOptimized: true)
!597 = !DISubroutineType(types: !598)
!598 = !{!367}
!599 = !DISubprogram(name: "__fetch_builtin_y", linkageName: "_ZN25__cuda_builtin_blockIdx_t17__fetch_builtin_yEv", scope: !594, file: !593, line: 79, type: !597, isLocal: false, isDefinition: false, scopeLine: 79, flags: DIFlagPrototyped, isOptimized: true)
!600 = !DISubprogram(name: "__fetch_builtin_z", linkageName: "_ZN25__cuda_builtin_blockIdx_t17__fetch_builtin_zEv", scope: !594, file: !593, line: 80, type: !597, isLocal: false, isDefinition: false, scopeLine: 80, flags: DIFlagPrototyped, isOptimized: true)
!601 = !DISubprogram(name: "operator uint3", linkageName: "_ZNK25__cuda_builtin_blockIdx_tcv5uint3Ev", scope: !594, file: !593, line: 83, type: !602, isLocal: false, isDefinition: false, scopeLine: 83, flags: DIFlagPrototyped, isOptimized: true)
!602 = !DISubroutineType(types: !603)
!603 = !{!604, !610}
!604 = distinct !DICompositeType(tag: DW_TAG_structure_type, name: "uint3", file: !605, line: 190, size: 96, elements: !606, identifier: "_ZTS5uint3")
!605 = !DIFile(filename: "/usr/local/cuda/include/vector_types.h", directory: "/home/dshen/benchmarks/polybench-gpu-1.0/cuda/BICG")
!606 = !{!607, !608, !609}
!607 = !DIDerivedType(tag: DW_TAG_member, name: "x", scope: !604, file: !605, line: 192, baseType: !367, size: 32)
!608 = !DIDerivedType(tag: DW_TAG_member, name: "y", scope: !604, file: !605, line: 192, baseType: !367, size: 32, offset: 32)
!609 = !DIDerivedType(tag: DW_TAG_member, name: "z", scope: !604, file: !605, line: 192, baseType: !367, size: 32, offset: 64)
!610 = !DIDerivedType(tag: DW_TAG_pointer_type, baseType: !611, size: 64, flags: DIFlagArtificial | DIFlagObjectPointer)
!611 = !DIDerivedType(tag: DW_TAG_const_type, baseType: !594)
!612 = !DISubprogram(name: "__cuda_builtin_blockIdx_t", scope: !594, file: !593, line: 85, type: !613, isLocal: false, isDefinition: false, scopeLine: 85, flags: DIFlagPrivate | DIFlagPrototyped, isOptimized: true)
!613 = !DISubroutineType(types: !614)
!614 = !{null, !615}
!615 = !DIDerivedType(tag: DW_TAG_pointer_type, baseType: !594, size: 64, flags: DIFlagArtificial | DIFlagObjectPointer)
!616 = !DISubprogram(name: "__cuda_builtin_blockIdx_t", scope: !594, file: !593, line: 85, type: !617, isLocal: false, isDefinition: false, scopeLine: 85, flags: DIFlagPrivate | DIFlagPrototyped, isOptimized: true)
!617 = !DISubroutineType(types: !618)
!618 = !{null, !615, !619}
!619 = !DIDerivedType(tag: DW_TAG_reference_type, baseType: !611, size: 64)
!620 = !DISubprogram(name: "operator=", linkageName: "_ZNK25__cuda_builtin_blockIdx_taSERKS_", scope: !594, file: !593, line: 85, type: !621, isLocal: false, isDefinition: false, scopeLine: 85, flags: DIFlagPrivate | DIFlagPrototyped, isOptimized: true)
!621 = !DISubroutineType(types: !622)
!622 = !{null, !610, !619}
!623 = !DISubprogram(name: "operator&", linkageName: "_ZNK25__cuda_builtin_blockIdx_tadEv", scope: !594, file: !593, line: 85, type: !624, isLocal: false, isDefinition: false, scopeLine: 85, flags: DIFlagPrivate | DIFlagPrototyped, isOptimized: true)
!624 = !DISubroutineType(types: !625)
!625 = !{!626, !610}
!626 = !DIDerivedType(tag: DW_TAG_pointer_type, baseType: !594, size: 64)
!627 = distinct !DILocation(line: 101, column: 10, scope: !574)
!628 = !{i32 0, i32 65535}
!629 = !DILocation(line: 89, column: 3, scope: !630, inlinedAt: !672)
!630 = distinct !DISubprogram(name: "__fetch_builtin_x", linkageName: "_ZN25__cuda_builtin_blockDim_t17__fetch_builtin_xEv", scope: !631, file: !593, line: 89, type: !597, isLocal: false, isDefinition: true, scopeLine: 89, flags: DIFlagPrototyped, isOptimized: true, unit: !0, declaration: !633, variables: !2)
!631 = distinct !DICompositeType(tag: DW_TAG_structure_type, name: "__cuda_builtin_blockDim_t", file: !593, line: 88, size: 8, elements: !632, identifier: "_ZTS25__cuda_builtin_blockDim_t")
!632 = !{!633, !634, !635, !636, !657, !661, !665, !668}
!633 = !DISubprogram(name: "__fetch_builtin_x", linkageName: "_ZN25__cuda_builtin_blockDim_t17__fetch_builtin_xEv", scope: !631, file: !593, line: 89, type: !597, isLocal: false, isDefinition: false, scopeLine: 89, flags: DIFlagPrototyped, isOptimized: true)
!634 = !DISubprogram(name: "__fetch_builtin_y", linkageName: "_ZN25__cuda_builtin_blockDim_t17__fetch_builtin_yEv", scope: !631, file: !593, line: 90, type: !597, isLocal: false, isDefinition: false, scopeLine: 90, flags: DIFlagPrototyped, isOptimized: true)
!635 = !DISubprogram(name: "__fetch_builtin_z", linkageName: "_ZN25__cuda_builtin_blockDim_t17__fetch_builtin_zEv", scope: !631, file: !593, line: 91, type: !597, isLocal: false, isDefinition: false, scopeLine: 91, flags: DIFlagPrototyped, isOptimized: true)
!636 = !DISubprogram(name: "operator dim3", linkageName: "_ZNK25__cuda_builtin_blockDim_tcv4dim3Ev", scope: !631, file: !593, line: 94, type: !637, isLocal: false, isDefinition: false, scopeLine: 94, flags: DIFlagPrototyped, isOptimized: true)
!637 = !DISubroutineType(types: !638)
!638 = !{!639, !655}
!639 = distinct !DICompositeType(tag: DW_TAG_structure_type, name: "dim3", file: !605, line: 417, size: 96, elements: !640, identifier: "_ZTS4dim3")
!640 = !{!641, !642, !643, !644, !648, !652}
!641 = !DIDerivedType(tag: DW_TAG_member, name: "x", scope: !639, file: !605, line: 419, baseType: !367, size: 32)
!642 = !DIDerivedType(tag: DW_TAG_member, name: "y", scope: !639, file: !605, line: 419, baseType: !367, size: 32, offset: 32)
!643 = !DIDerivedType(tag: DW_TAG_member, name: "z", scope: !639, file: !605, line: 419, baseType: !367, size: 32, offset: 64)
!644 = !DISubprogram(name: "dim3", scope: !639, file: !605, line: 421, type: !645, isLocal: false, isDefinition: false, scopeLine: 421, flags: DIFlagPrototyped, isOptimized: true)
!645 = !DISubroutineType(types: !646)
!646 = !{null, !647, !367, !367, !367}
!647 = !DIDerivedType(tag: DW_TAG_pointer_type, baseType: !639, size: 64, flags: DIFlagArtificial | DIFlagObjectPointer)
!648 = !DISubprogram(name: "dim3", scope: !639, file: !605, line: 422, type: !649, isLocal: false, isDefinition: false, scopeLine: 422, flags: DIFlagPrototyped, isOptimized: true)
!649 = !DISubroutineType(types: !650)
!650 = !{null, !647, !651}
!651 = !DIDerivedType(tag: DW_TAG_typedef, name: "uint3", file: !605, line: 383, baseType: !604)
!652 = !DISubprogram(name: "operator uint3", linkageName: "_ZN4dim3cv5uint3Ev", scope: !639, file: !605, line: 423, type: !653, isLocal: false, isDefinition: false, scopeLine: 423, flags: DIFlagPrototyped, isOptimized: true)
!653 = !DISubroutineType(types: !654)
!654 = !{!651, !647}
!655 = !DIDerivedType(tag: DW_TAG_pointer_type, baseType: !656, size: 64, flags: DIFlagArtificial | DIFlagObjectPointer)
!656 = !DIDerivedType(tag: DW_TAG_const_type, baseType: !631)
!657 = !DISubprogram(name: "__cuda_builtin_blockDim_t", scope: !631, file: !593, line: 96, type: !658, isLocal: false, isDefinition: false, scopeLine: 96, flags: DIFlagPrivate | DIFlagPrototyped, isOptimized: true)
!658 = !DISubroutineType(types: !659)
!659 = !{null, !660}
!660 = !DIDerivedType(tag: DW_TAG_pointer_type, baseType: !631, size: 64, flags: DIFlagArtificial | DIFlagObjectPointer)
!661 = !DISubprogram(name: "__cuda_builtin_blockDim_t", scope: !631, file: !593, line: 96, type: !662, isLocal: false, isDefinition: false, scopeLine: 96, flags: DIFlagPrivate | DIFlagPrototyped, isOptimized: true)
!662 = !DISubroutineType(types: !663)
!663 = !{null, !660, !664}
!664 = !DIDerivedType(tag: DW_TAG_reference_type, baseType: !656, size: 64)
!665 = !DISubprogram(name: "operator=", linkageName: "_ZNK25__cuda_builtin_blockDim_taSERKS_", scope: !631, file: !593, line: 96, type: !666, isLocal: false, isDefinition: false, scopeLine: 96, flags: DIFlagPrivate | DIFlagPrototyped, isOptimized: true)
!666 = !DISubroutineType(types: !667)
!667 = !{null, !655, !664}
!668 = !DISubprogram(name: "operator&", linkageName: "_ZNK25__cuda_builtin_blockDim_tadEv", scope: !631, file: !593, line: 96, type: !669, isLocal: false, isDefinition: false, scopeLine: 96, flags: DIFlagPrivate | DIFlagPrototyped, isOptimized: true)
!669 = !DISubroutineType(types: !670)
!670 = !{!671, !655}
!671 = !DIDerivedType(tag: DW_TAG_pointer_type, baseType: !631, size: 64)
!672 = distinct !DILocation(line: 101, column: 23, scope: !673)
!673 = !DILexicalBlockFile(scope: !574, file: !1, discriminator: 1)
!674 = !{i32 1, i32 1025}
!675 = !DILocation(line: 101, column: 21, scope: !574)
!676 = !DILocation(line: 67, column: 3, scope: !677, inlinedAt: !703)
!677 = distinct !DISubprogram(name: "__fetch_builtin_x", linkageName: "_ZN26__cuda_builtin_threadIdx_t17__fetch_builtin_xEv", scope: !678, file: !593, line: 67, type: !597, isLocal: false, isDefinition: true, scopeLine: 67, flags: DIFlagPrototyped, isOptimized: true, unit: !0, declaration: !680, variables: !2)
!678 = distinct !DICompositeType(tag: DW_TAG_structure_type, name: "__cuda_builtin_threadIdx_t", file: !593, line: 66, size: 8, elements: !679, identifier: "_ZTS26__cuda_builtin_threadIdx_t")
!679 = !{!680, !681, !682, !683, !688, !692, !696, !699}
!680 = !DISubprogram(name: "__fetch_builtin_x", linkageName: "_ZN26__cuda_builtin_threadIdx_t17__fetch_builtin_xEv", scope: !678, file: !593, line: 67, type: !597, isLocal: false, isDefinition: false, scopeLine: 67, flags: DIFlagPrototyped, isOptimized: true)
!681 = !DISubprogram(name: "__fetch_builtin_y", linkageName: "_ZN26__cuda_builtin_threadIdx_t17__fetch_builtin_yEv", scope: !678, file: !593, line: 68, type: !597, isLocal: false, isDefinition: false, scopeLine: 68, flags: DIFlagPrototyped, isOptimized: true)
!682 = !DISubprogram(name: "__fetch_builtin_z", linkageName: "_ZN26__cuda_builtin_threadIdx_t17__fetch_builtin_zEv", scope: !678, file: !593, line: 69, type: !597, isLocal: false, isDefinition: false, scopeLine: 69, flags: DIFlagPrototyped, isOptimized: true)
!683 = !DISubprogram(name: "operator uint3", linkageName: "_ZNK26__cuda_builtin_threadIdx_tcv5uint3Ev", scope: !678, file: !593, line: 72, type: !684, isLocal: false, isDefinition: false, scopeLine: 72, flags: DIFlagPrototyped, isOptimized: true)
!684 = !DISubroutineType(types: !685)
!685 = !{!604, !686}
!686 = !DIDerivedType(tag: DW_TAG_pointer_type, baseType: !687, size: 64, flags: DIFlagArtificial | DIFlagObjectPointer)
!687 = !DIDerivedType(tag: DW_TAG_const_type, baseType: !678)
!688 = !DISubprogram(name: "__cuda_builtin_threadIdx_t", scope: !678, file: !593, line: 74, type: !689, isLocal: false, isDefinition: false, scopeLine: 74, flags: DIFlagPrivate | DIFlagPrototyped, isOptimized: true)
!689 = !DISubroutineType(types: !690)
!690 = !{null, !691}
!691 = !DIDerivedType(tag: DW_TAG_pointer_type, baseType: !678, size: 64, flags: DIFlagArtificial | DIFlagObjectPointer)
!692 = !DISubprogram(name: "__cuda_builtin_threadIdx_t", scope: !678, file: !593, line: 74, type: !693, isLocal: false, isDefinition: false, scopeLine: 74, flags: DIFlagPrivate | DIFlagPrototyped, isOptimized: true)
!693 = !DISubroutineType(types: !694)
!694 = !{null, !691, !695}
!695 = !DIDerivedType(tag: DW_TAG_reference_type, baseType: !687, size: 64)
!696 = !DISubprogram(name: "operator=", linkageName: "_ZNK26__cuda_builtin_threadIdx_taSERKS_", scope: !678, file: !593, line: 74, type: !697, isLocal: false, isDefinition: false, scopeLine: 74, flags: DIFlagPrivate | DIFlagPrototyped, isOptimized: true)
!697 = !DISubroutineType(types: !698)
!698 = !{null, !686, !695}
!699 = !DISubprogram(name: "operator&", linkageName: "_ZNK26__cuda_builtin_threadIdx_tadEv", scope: !678, file: !593, line: 74, type: !700, isLocal: false, isDefinition: false, scopeLine: 74, flags: DIFlagPrivate | DIFlagPrototyped, isOptimized: true)
!700 = !DISubroutineType(types: !701)
!701 = !{!702, !686}
!702 = !DIDerivedType(tag: DW_TAG_pointer_type, baseType: !678, size: 64)
!703 = distinct !DILocation(line: 101, column: 36, scope: !704)
!704 = !DILexicalBlockFile(scope: !574, file: !1, discriminator: 2)
!705 = !{i32 0, i32 1024}
!706 = !DILocation(line: 101, column: 34, scope: !574)
!707 = !DILocation(line: 101, column: 6, scope: !574)
!708 = !DILocation(line: 103, column: 8, scope: !586)
!709 = !DILocation(line: 103, column: 6, scope: !574)
!710 = !DILocation(line: 105, column: 3, scope: !585)
!711 = !DILocation(line: 105, column: 8, scope: !585)
!712 = !{!713, !713, i64 0}
!713 = !{!"float", !714, i64 0}
!714 = !{!"omnipotent char", !715, i64 0}
!715 = !{!"Simple C++ TBAA"}
!716 = !DILocation(line: 107, column: 7, scope: !585)
!717 = !DILocation(line: 108, column: 3, scope: !718)
!718 = !DILexicalBlockFile(scope: !719, file: !1, discriminator: 1)
!719 = distinct !DILexicalBlock(scope: !585, file: !1, line: 108, column: 3)
!720 = !DILocation(line: 110, column: 9, scope: !721)
!721 = distinct !DILexicalBlock(scope: !722, file: !1, line: 109, column: 3)
!722 = distinct !DILexicalBlock(scope: !719, file: !1, line: 108, column: 3)
!723 = !DILocation(line: 110, column: 16, scope: !721)
!724 = !DILocation(line: 110, column: 21, scope: !721)
!725 = !DILocation(line: 110, column: 12, scope: !721)
!726 = !DILocation(line: 110, column: 28, scope: !721)
!727 = !DILocation(line: 110, column: 26, scope: !721)
!728 = !DILocation(line: 108, column: 23, scope: !729)
!729 = !DILexicalBlockFile(scope: !722, file: !1, discriminator: 2)
!730 = !DILocation(line: 108, column: 16, scope: !731)
!731 = !DILexicalBlockFile(scope: !722, file: !1, discriminator: 1)
!732 = distinct !{!732, !733, !734}
!733 = !DILocation(line: 108, column: 3, scope: !719)
!734 = !DILocation(line: 111, column: 3, scope: !719)
!735 = !DILocation(line: 113, column: 1, scope: !574)
!736 = distinct !DISubprogram(name: "bicg_kernel2", linkageName: "_Z12bicg_kernel2PfS_S_", scope: !1, file: !1, line: 117, type: !575, isLocal: false, isDefinition: true, scopeLine: 118, flags: DIFlagPrototyped, isOptimized: true, unit: !0, variables: !737)
!737 = !{!738, !739, !740, !741, !742}
!738 = !DILocalVariable(name: "A", arg: 1, scope: !736, file: !1, line: 117, type: !577)
!739 = !DILocalVariable(name: "p", arg: 2, scope: !736, file: !1, line: 117, type: !577)
!740 = !DILocalVariable(name: "q", arg: 3, scope: !736, file: !1, line: 117, type: !577)
!741 = !DILocalVariable(name: "i", scope: !736, file: !1, line: 119, type: !70)
!742 = !DILocalVariable(name: "j", scope: !743, file: !1, line: 125, type: !70)
!743 = distinct !DILexicalBlock(scope: !744, file: !1, line: 122, column: 2)
!744 = distinct !DILexicalBlock(scope: !736, file: !1, line: 121, column: 6)
!745 = !DILocation(line: 117, column: 41, scope: !736)
!746 = !DILocation(line: 117, column: 55, scope: !736)
!747 = !DILocation(line: 117, column: 69, scope: !736)
!748 = !DILocation(line: 78, column: 3, scope: !592, inlinedAt: !749)
!749 = distinct !DILocation(line: 119, column: 10, scope: !736)
!750 = !DILocation(line: 89, column: 3, scope: !630, inlinedAt: !751)
!751 = distinct !DILocation(line: 119, column: 23, scope: !752)
!752 = !DILexicalBlockFile(scope: !736, file: !1, discriminator: 1)
!753 = !DILocation(line: 119, column: 21, scope: !736)
!754 = !DILocation(line: 67, column: 3, scope: !677, inlinedAt: !755)
!755 = distinct !DILocation(line: 119, column: 36, scope: !756)
!756 = !DILexicalBlockFile(scope: !736, file: !1, discriminator: 2)
!757 = !DILocation(line: 119, column: 34, scope: !736)
!758 = !DILocation(line: 119, column: 6, scope: !736)
!759 = !DILocation(line: 121, column: 8, scope: !744)
!760 = !DILocation(line: 121, column: 6, scope: !736)
!761 = !DILocation(line: 123, column: 3, scope: !743)
!762 = !DILocation(line: 123, column: 8, scope: !743)
!763 = !DILocation(line: 125, column: 7, scope: !743)
!764 = !DILocation(line: 126, column: 3, scope: !765)
!765 = !DILexicalBlockFile(scope: !766, file: !1, discriminator: 1)
!766 = distinct !DILexicalBlock(scope: !743, file: !1, line: 126, column: 3)
!767 = !DILocation(line: 128, column: 9, scope: !768)
!768 = distinct !DILexicalBlock(scope: !769, file: !1, line: 127, column: 3)
!769 = distinct !DILexicalBlock(scope: !766, file: !1, line: 126, column: 3)
!770 = !DILocation(line: 128, column: 21, scope: !768)
!771 = !DILocation(line: 128, column: 12, scope: !768)
!772 = !DILocation(line: 128, column: 28, scope: !768)
!773 = !DILocation(line: 128, column: 26, scope: !768)
!774 = !DILocation(line: 126, column: 21, scope: !775)
!775 = !DILexicalBlockFile(scope: !769, file: !1, discriminator: 2)
!776 = !DILocation(line: 126, column: 14, scope: !777)
!777 = !DILexicalBlockFile(scope: !769, file: !1, discriminator: 1)
!778 = distinct !{!778, !779, !780}
!779 = !DILocation(line: 126, column: 3, scope: !766)
!780 = !DILocation(line: 129, column: 3, scope: !766)
!781 = !DILocation(line: 131, column: 1, scope: !736)
